2202568704-2202569727
2208404480-2208405503
2214537216-2214538239
3005923328-3005939711
3006528512-3006529535
3007090688-3007092735
3007305728-3007307775
3039363072-3039395839
3039395840-3039412223
3044208640-3044212735
3048292352-3048308735
3120734208-3120738303
3124844544-3124845567
3194380288-3194388479
3194640384-3194642431
3195211776-3195215871
3195807744-3195809791
3200581632-3200598015
3200598016-3200614399
3210825728-3210827775
3356148224-3356148479
3357589504-3357597695
3357597696-3357605887
3363557376-3363559423
