2197847040-2197848063
2197875712-2197876735
2202588160-2202589183
2202592256-2202593279
2208429056-2208430079
2209480704-2209546239
2230779904-2230845439
2230845440-2230910975
2231238656-2231304191
2231335936-2231336959
2317654016-2317655039
2358509568-2358575103
2496200704-2496266239
2496266240-2496331775
2496331776-2496397311
2496397312-2496462847
2496462848-2496528383
2496528384-2496593919
2496593920-2496659455
2496659456-2496724991
2496724992-2496790527
2496790528-2496856063
2496856064-2496921599
2496921600-2496987135
2496987136-2497052671
2497052672-2497118207
2497118208-2497183743
2497183744-2497249279
2497249280-2497314815
2497314816-2497380351
2497380352-2497445887
2497445888-2497511423
2497511424-2497576959
2497576960-2497642495
2497642496-2497708031
2497708032-2497773567
2497773568-2497839103
2497839104-2497904639
2497904640-2497970175
2497970176-2498035711
2498035712-2498101247
2498101248-2498166783
2498166784-2498232319
2498232320-2498297855
2498297856-2498363391
2498363392-2498428927
2498428928-2498494463
2498494464-2498559999
2498560000-2498625535
2498625536-2498691071
2498691072-2498756607
2498756608-2498822143
2498822144-2498887679
2498887680-2498953215
2498953216-2499018751
2499018752-2499084287
2499084288-2499149823
2499149824-2499215359
2499215360-2499280895
2499280896-2499346431
2499346432-2499411967
2499411968-2499477503
2657157120-2657222655
2668625920-2668691455
2829385728-2829451263
2835283968-2835349503
2853765120-2853830655
2856714240-2856779775
2863202304-2863267839
2984247296-2984771583
2984771584-2984902655
2984902656-2984935423
2985033728-2985295871
2985295872-2985820159
2985820160-2985951231
3133312000-3133313023
3145728000-3146776575
3146776576-3147825151
3147825152-3147890687
3147890688-3147956223
3147956224-3148087295
3148087296-3148349439
3148349440-3148873727
3148873728-3149135871
3149398016-3149529087
3149529088-3149660159
3149660160-3149791231
3149791232-3149856767
3149856768-3149873151
3149873152-3149881343
3149889536-3149922303
3149922304-3152019455
3152019456-3153068031
3153068032-3153592319
3153592320-3153723391
3153723392-3153788927
3153788928-3153854463
3153854464-3153985535
3153985536-3154051071
3179282432-3181379583
3181379584-3183476735
3183476736-3184001023
3184001024-3184066559
3184066560-3184099327
3184099328-3184115711
3184115712-3184116735
3184123904-3184124927
3184124928-3184125951
3184128000-3184129023
3184129024-3184129279
3184129280-3184129535
3184129536-3184129791
3184129792-3184130047
3184130048-3184131071
3184131072-3184132095
3184132096-3184164863
3184164864-3184197631
3184197632-3184263167
3184263168-3184295935
3184295936-3184328703
3184328704-3184361471
3184361472-3184394239
3184394240-3184459775
3184459776-3184525311
3184525312-3184590847
3184590848-3184656383
3184656384-3184787455
3184787456-3184852991
3184852992-3184885759
3184885760-3184918527
3184918528-3185049599
3185049600-3185180671
3185180672-3185246207
3185246208-3185311743
3185311744-3185442815
3185442816-3185573887
3185573888-3186622463
3186622464-3187671039
3226733568-3226733823
3227818752-3227819007
3227819008-3227819263
3227819520-3227819775
3227819776-3227820031
3227820032-3227820287
3227820288-3227820543
3227820544-3227820799
3227820800-3227821055
3227821056-3227821311
3227821312-3227821567
3227821568-3227821823
3227821824-3227822079
3227822080-3227822335
3227822336-3227822591
3227822592-3227822847
3227823104-3227823359
3227823360-3227823615
3227823616-3227823871
3227823872-3227824127
3227824128-3227824383
3227824640-3227824895
3227824896-3227825151
3227825152-3227825663
3227825920-3227826175
3227826176-3227826687
3227827200-3227827455
3227827456-3227827711
3227827712-3227827967
3227827968-3227828223
3227828224-3227829247
3227829248-3227829759
3227830016-3227830271
3227830272-3227830527
3227830528-3227830783
3227830784-3227831039
3227831040-3227831295
3227831296-3227831551
3227831552-3227831807
3227832064-3227832319
3227832320-3227832575
3227832576-3227832831
3227832832-3227833087
3227833088-3227833343
3227833344-3227833599
3227833600-3227833855
3227834368-3227834623
3227834624-3227834879
3227834880-3227835135
3227835136-3227835391
3227835392-3227835647
3227835648-3227835903
3227835904-3227836159
3227836160-3227836415
3227836416-3227836671
3227836672-3227836927
3227836928-3227837183
3227837184-3227837439
3227837952-3227838207
3227838208-3227838463
3227838464-3227838975
3227838976-3227839231
3227839232-3227839487
3227839488-3227839743
3227839744-3227839999
3227840000-3227840511
3227840512-3227840767
3227840768-3227841023
3227841024-3227841535
3227841536-3227841791
3227841792-3227842047
3227842048-3227842303
3227842816-3227843071
3227843072-3227843327
3230969600-3230969855
3231292160-3231292415
3233684992-3233685503
3234574592-3234574847
3234843648-3234844159
3331818496-3331818751
3355464448-3355464703
3355464704-3355464959
3355466240-3355466751
3355466752-3355467263
3355467520-3355467775
3355469568-3355469823
3355469824-3355470335
3355470336-3355470591
3355471104-3355471359
3355471616-3355471871
3355471872-3355472383
3355475200-3355475455
3355475456-3355475967
3355475968-3355476991
3355476992-3355477247
3355477248-3355477503
3355479808-3355480063
3355705344-3355707391
3355707392-3355707647
3355707648-3355707903
3355707904-3355708159
3355708160-3355708415
3355708416-3355708927
3355708928-3355709439
3355713536-3355717631
3355717632-3355718655
3355718656-3355718911
3355718912-3355719167
3355719168-3355719423
3355719424-3355719679
3355719680-3355720191
3355720192-3355720447
3355720704-3355721727
3355721728-3355722751
3355723264-3355723775
3355723776-3355725823
3355725824-3355729919
3355729920-3355738111
3355738112-3355742207
3355742208-3355746303
3356035072-3356037119
3356076544-3356077055
3356077056-3356077567
3356079616-3356080127
3356080128-3356080639
3356135168-3356135423
3356148992-3356149247
3356149248-3356149503
3356149760-3356150015
3356152832-3356153855
3356153856-3356154367
3356154368-3356154623
3356158208-3356158463
3356160000-3356160255
3356160768-3356161023
3356161024-3356161279
3356161536-3356162047
3356162048-3356162559
3356246016-3356262399
3356262400-3356262655
3356270080-3356270591
3356270592-3356271615
3356271616-3356271871
3356271872-3356272127
3356272128-3356272383
3356299264-3356303359
3356303360-3356303615
3356303616-3356303871
3356303872-3356304127
3356304128-3356304383
3356304384-3356304639
3356304640-3356304895
3356304896-3356305407
3356305408-3356305663
3356307456-3356311551
3356311552-3356315647
3356315648-3356316159
3356316160-3356316415
3356317696-3356319743
3356319744-3356323839
3356323840-3356327935
3356327936-3356328959
3356364800-3356368895
3356499968-3356508159
3356950528-3356950783
3356950784-3356951039
3356951040-3356951295
3356951296-3356951551
3356951552-3356951807
3356951808-3356952063
3356952064-3356952319
3356952320-3356952575
3356952576-3356953599
3356953600-3356954623
3356954624-3356955135
3356955136-3356955647
3356955648-3356955903
3356955904-3356956159
3356956160-3356956671
3356956672-3356957695
3356957696-3356957951
3356957952-3356958207
3356958208-3356958463
3356958720-3356958975
3356958976-3356959231
3356959232-3356959487
3356959488-3356959743
3356959744-3356960255
3356960256-3356960511
3356960512-3356960767
3356960768-3356961791
3356961792-3356962303
3356962304-3356962559
3356962560-3356962815
3356962816-3356963071
3356963072-3356963327
3356963328-3356963583
3356963584-3356963839
3356963840-3356964095
3356964096-3356964351
3356964352-3356964607
3356964608-3356964863
3356964864-3356965119
3356965120-3356965375
3356965376-3356965631
3356965632-3356965887
3356965888-3356966143
3356966144-3356966399
3356966400-3356966655
3356966656-3356966911
3356966912-3356967167
3356967424-3356967679
3356967680-3356967935
3356968960-3356969471
3356969472-3356969727
3356969728-3356969983
3356969984-3356970495
3356970496-3356971007
3356971008-3356971519
3356971520-3356971775
3356971776-3356972031
3356972288-3356972543
3356972544-3356972799
3356972800-3356973055
3356973056-3356973311
3356973312-3356973567
3356973568-3356973823
3356973824-3356974079
3356974080-3356974591
3356974592-3356974847
3356974848-3356975103
3356975104-3356977151
3356977152-3356977407
3356977408-3356977663
3356977664-3356977919
3356977920-3356978175
3356978176-3356978687
3356978688-3356978943
3356978944-3356979199
3356979200-3356979455
3356979456-3356979711
3356979712-3356979967
3356980480-3356980735
3356981248-3356981503
3356981504-3356981759
3356981760-3356982015
3356982016-3356982271
3356982272-3356982527
3356982528-3356982783
3356982784-3356983039
3356983040-3356983295
3356983296-3356983551
3356983552-3356983807
3356983808-3356984063
3356984064-3356984319
3356984320-3356984575
3356984576-3356984831
3356984832-3356985343
3356985344-3356985599
3356985600-3356985855
3356985856-3356986111
3356986112-3356986367
3356986368-3356986623
3356986624-3356986879
3356986880-3356987135
3356987136-3356987391
3356987392-3356987647
3356987648-3356987903
3356987904-3356988159
3356988160-3356988415
3356988672-3356988927
3356988928-3356989183
3356989184-3356989439
3356989952-3356990463
3356990464-3356990719
3356990720-3356990975
3356990976-3356991231
3356991232-3356991487
3356991488-3356992511
3356992512-3356992767
3356992768-3356993023
3356993024-3356993279
3356993280-3356993535
3356993536-3356994047
3356994048-3356994303
3356994304-3356994559
3356994560-3356994815
3356994816-3356995071
3356995072-3356995327
3356995328-3356995583
3356995584-3356995839
3356995840-3356996095
3356996096-3356996351
3356996352-3356996607
3356997632-3356997887
3356997888-3356998143
3356998144-3356998655
3356998656-3356998911
3356999168-3356999679
3356999680-3357000703
3357000704-3357001215
3357001216-3357001727
3357001728-3357002239
3357002240-3357002495
3357002496-3357002751
3357002752-3357003007
3357003776-3357004031
3357004032-3357004287
3357004288-3357004799
3357004800-3357005823
3357005824-3357006847
3357006848-3357007359
3357007360-3357007871
3357011968-3357014015
3357014016-3357015039
3357015040-3357015295
3357015296-3357015551
3357605888-3357606143
3357606144-3357606399
3357606400-3357606655
3357606656-3357606911
3357607168-3357607423
3357607424-3357607679
3357607680-3357607935
3357607936-3357608191
3357608192-3357608447
3357608448-3357608959
3357608960-3357609471
3357609472-3357609727
3357609728-3357609983
3357609984-3357610239
3357610240-3357610495
3357610496-3357610751
3357610752-3357611007
3357611008-3357611263
3357611264-3357611519
3357611520-3357611775
3357611776-3357612031
3357612032-3357612287
3357612288-3357612543
3357612544-3357613055
3357613312-3357613567
3357613568-3357613823
3357613824-3357614079
3357614080-3357614335
3357614336-3357614591
3357614592-3357614847
3357614848-3357615103
3357615104-3357615359
3357615360-3357615615
3357615616-3357615871
3357615872-3357616127
3357616128-3357616383
3357616384-3357616639
3357616640-3357616895
3357616896-3357617151
3357617152-3357617407
3357617408-3357617663
3357617664-3357617919
3357617920-3357618175
3357618176-3357618431
3357618432-3357618687
3357618688-3357618943
3357619200-3357619455
3357619456-3357619711
3357619712-3357619967
3357619968-3357620223
3357620224-3357620479
3357620480-3357620735
3357620736-3357620991
3357620992-3357621247
3357621248-3357621503
3357621504-3357621759
3357621760-3357622271
3357622272-3357622527
3357622528-3357622783
3357622784-3357623039
3357623296-3357623551
3357623552-3357623807
3357623808-3357624319
3357624320-3357624575
3357624576-3357624831
3357624832-3357625087
3357625088-3357625343
3357625344-3357625599
3357625600-3357625855
3357625856-3357626111
3357626112-3357626367
3357626368-3357626623
3357627392-3357627647
3357627904-3357628415
3357630720-3357630975
3357630976-3357631487
3357631488-3357632511
3357632512-3357633023
3357633024-3357633279
3357633280-3357633535
3357633792-3357634047
3357634048-3357634303
3357634304-3357634559
3357634560-3357634815
3357635072-3357635327
3357635584-3357635839
3357636096-3357636351
3357636352-3357636607
3357636608-3357636863
3357636864-3357637119
3357637120-3357637375
3357637376-3357637631
3357637632-3357637887
3357640704-3357642751
3357642752-3357644799
3357646848-3357647871
3357648896-3357649151
3357649152-3357649407
3357649408-3357649663
3357649664-3357649919
3357649920-3357650175
3357650176-3357650431
3357650944-3357651199
3357651200-3357651455
3357651456-3357651711
3357651712-3357651967
3357651968-3357652223
3357652224-3357652479
3357652480-3357652735
3357652736-3357652991
3357652992-3357653247
3357653248-3357653503
3357653504-3357653759
3357653760-3357654015
3357654016-3357655039
3357655040-3357657087
3357657088-3357657599
3357657600-3357657855
3357658112-3357658367
3357658368-3357658623
3357658624-3357658879
3357658880-3357659135
3357659136-3357663231
3357663232-3357665279
3357665280-3357666303
3357666304-3357666815
3357666816-3357667327
3357667328-3357668351
3357668352-3357668863
3357668864-3357669375
3357669376-3357669631
3357669632-3357669887
3357669888-3357670143
3357670144-3357670399
3357670400-3357670655
3357670912-3357671167
3357671168-3357671423
3357671680-3357671935
3357671936-3357672447
3357672448-3357673471
3357673472-3357675519
3357675520-3357676543
3357676544-3357677055
3357677056-3357677311
3357677312-3357677567
3357677568-3357678591
3357678592-3357678847
3357678848-3357679103
3357679104-3357679615
3357679616-3357683711
3357683712-3357684735
3357684736-3357685247
3357685248-3357685759
3357685760-3357686783
3357686784-3357687039
3357687040-3357687295
3357687296-3357687551
3357687552-3357687807
3357687808-3357695999
3357696000-3357700095
3357700096-3357704191
3357704192-3357704447
3357704448-3357704703
3357704704-3357704959
3357704960-3357705215
3357705216-3357705471
3357705472-3357705727
3357705728-3357705983
3357705984-3357706239
3357706240-3357706751
3357706752-3357707007
3357707008-3357707263
3357707264-3357707519
3357707520-3357707775
3357707776-3357708031
3357708032-3357708287
3357708288-3357708799
3357708800-3357709311
3357709312-3357709567
3357709568-3357709823
3357709824-3357710079
3357710080-3357710335
3357710336-3357710847
3357710848-3357711103
3357711104-3357711359
3357711360-3357711615
3357711616-3357711871
3357711872-3357712127
3357712128-3357712383
3357713408-3357714431
3357714432-3357714687
3357714688-3357714943
3357714944-3357715199
3357715456-3357715711
3357715968-3357716223
3357716224-3357716479
3357716480-3357720575
3357720576-3357720831
3357720832-3357721087
3357721088-3357721343
3357721344-3357721599
3357721600-3357722111
3357722112-3357722367
3357722368-3357722623
3357722624-3357722879
3357722880-3357723135
3357723136-3357723647
3357723648-3357723903
3357724416-3357724671
3357724672-3357725183
3357725440-3357725695
3357725696-3357725951
3357725952-3357726207
3357726208-3357726463
3357727744-3357727999
3357728000-3357728255
3357728256-3357728511
3357728512-3357728767
3357802496-3357810687
3357810688-3357818879
3357818880-3357827071
3357827072-3357835263
3357835264-3357843455
3357843456-3357851647
3357851648-3357859839
3357859840-3357868031
3357933568-3357941759
3357941760-3357949951
3357949952-3357958143
3357958144-3357966335
3357966336-3357974527
3357974528-3357982719
3357982720-3357990911
3357990912-3357999103
3357999104-3358007295
3358007296-3358015487
3358023680-3358031871
3358031872-3358040063
3358040064-3358048255
3358048256-3358056447
3358056448-3358064639
3358851072-3358855167
3358859264-3358863359
3358863360-3358867455
3358867456-3358871551
3358871552-3358875647
3358875648-3358879743
3358879744-3358883839
3358883840-3358887935
3358892032-3358900223
3358900224-3358908415
3358908416-3358912511
3358912512-3358916607
3358916608-3358918655
3358924800-3358932991
3358932992-3358941183
3358941184-3358945279
3358945280-3358949375
3358949376-3358965759
3358973952-3358978047
3358978048-3358982143
3359113216-3359129599
3359129600-3359133695
3359133696-3359137791
3359137792-3359141887
3359141888-3359145983
3359145984-3359162367
3359162368-3359166463
3359166464-3359170559
3359170560-3359174655
3359174656-3359178751
3359178752-3359182847
3359182848-3359186943
3359186944-3359191039
3359191040-3359195135
3359195136-3359199231
3359199232-3359203327
3359203328-3359211519
3359211520-3359219711
3359219712-3359227903
3359227904-3359236095
3359236096-3359244287
3359637504-3359768575
3359768576-3359776767
3359776768-3359784959
3359784960-3359793151
3359793152-3359797247
3359801344-3359834111
3359834112-3359899647
3359932416-3359948799
3360423936-3360440319
3360440320-3360444415
3360444416-3360448511
3360448512-3360452607
3360452608-3360456703
3360456704-3360473087
3360473088-3360481279
3360481280-3360485375
3360485376-3360489471
3360489472-3360522239
3360522240-3360526335
3360526336-3360530431
3360530432-3360534527
3360538624-3360542719
3360542720-3360546815
3360546816-3360550911
3360550912-3360555007
3360555008-3360587775
3360587776-3360620543
3360620544-3360653311
3360653312-3360661503
3360661504-3360665599
3360665600-3360667647
3360669696-3360673791
3360673792-3360677887
3360677888-3360686079
3361472512-3361505279
3361505280-3361538047
3361603584-3361636351
3361636352-3361644543
3361644544-3361648639
3361648640-3361648895
3361648896-3361649151
3361649152-3361649407
3361649408-3361649663
3361649664-3361649919
3361649920-3361650175
3361650176-3361650431
3361650432-3361650687
3361650688-3361652735
3361652736-3361660927
3361660928-3361665023
3361669120-3361701887
3361701888-3361705983
3361705984-3361710079
3361710080-3361712127
3361712128-3361713151
3361726464-3361734655
3367763968-3367796735
3367796736-3367804927
3368157184-3368173567
3370188800-3370196991
3370926080-3370942463
3371106304-3371122687
3378511872-3379560447
3379560448-3380084735
3380084736-3380346879
3380346880-3380609023
3380609024-3380641791
3380641792-3380674559
3380674560-3380740095
3380740096-3380744191
3380748288-3380752383
3380752384-3380756479
3380756480-3380760575
3380760576-3380760831
3380760832-3380761087
3380764672-3380772863
3380772864-3380781055
3380781056-3380789247
3380789248-3380805631
3380805632-3380805887
3380805888-3380806143
3380806144-3380806399
3380806400-3380806655
3380806656-3380806911
3380806912-3380807167
3380807168-3380807679
3380807680-3380808191
3380808704-3380808959
3380808960-3380809215
3380809216-3380809471
3380809472-3380809727
3380809728-3380810751
3380810752-3380811775
3380813824-3380814079
3380814080-3380814335
3380814336-3380814847
3380814848-3380815103
3380815872-3380816127
3380816896-3380817151
3380817920-3380818175
3380818944-3380819967
3380819968-3380820991
3380820992-3380822015
3380822016-3380822271
3380822272-3380822527
3380824064-3380824319
3380825088-3380825343
3380828160-3380828671
3380830208-3380830463
3380831232-3380831487
3380831488-3380831743
3380832256-3380832767
3380833280-3380833791
3380834304-3380834559
3380834560-3380834815
3380835328-3380835583
3380835584-3380835839
3380836352-3380836607
3380837376-3380838399
3380838400-3380840447
3380854784-3380856831
3380856832-3380857855
3380857856-3380858879
3380865024-3380866047
3380866048-3380867071
3380869120-3380869375
3380869376-3380869631
3380869632-3380870143
3380870144-3380870655
3380870656-3380870911
3380870912-3380871167
3380871168-3380936703
3380936704-3381002239
3381002240-3381067775
3381067776-3381133311
3381133312-3381264383
3381264384-3381329919
3381329920-3381338111
3381338112-3381346303
3381346304-3381350399
3381354496-3381362687
3381362688-3381366783
3381366784-3381370879
3381370880-3381372927
3381372928-3381373951
3381374976-3381377023
3381379072-3381383167
3381383168-3381385215
3381387264-3381395455
3381395456-3381403647
3381403648-3381411839
3381411840-3381415935
3381415936-3381420031
3381420032-3381428223
3381428224-3381436415
3381436416-3381444607
3381444608-3381448703
3381460992-3381493759
3381493760-3381526527
3381526528-3381559295
3381559296-3381592063
3381592064-3381608447
3381608448-3381616639
3381616640-3381624831
3381624832-3381641215
3381641216-3381657599
3381657600-3381919743
3381919744-3381927935
3381927936-3381936127
3381936128-3381944319
3381952512-3381960703
3381968896-3381972991
3381985280-3381993471
3381993472-3382001663
3382001664-3382009855
3382018048-3382026239
3382026240-3382030335
3382030336-3382034431
3382034432-3382050815
3382050816-3382052863
3382052864-3382053887
3382059008-3382061055
3382061056-3382063103
3382067200-3382071295
3382083584-3382087679
3382099968-3382104063
3382104064-3382108159
3382108160-3382116351
3382116352-3382181887
3382181888-3382444031
3382444032-3382448127
3382448128-3382452223
3382452224-3382460415
3382460416-3382476799
3382476800-3382509567
3382509568-3382542335
3382542336-3382558719
3382575104-3382577151
3382579200-3382580223
3382583296-3382585343
3382591488-3382593535
3382593536-3382593791
3382593792-3382594047
3382594048-3382594559
3382594560-3382595583
3382595584-3382597631
3382597632-3382599679
3382599680-3382601727
3382601728-3382602751
3382603776-3382605823
3382607872-3382616063
3382616064-3382624255
3382624256-3382640639
3382640640-3382642687
3382644736-3382646783
3382648832-3382650879
3382650880-3382651903
3382652928-3382653951
3382657024-3382659071
3382661120-3382662143
3382665216-3382667263
3382667264-3382668287
3382668288-3382669311
3382672384-3382673407
3382673408-3382677503
3382681600-3382683647
3382685696-3382686719
3382689792-3382691839
3382691840-3382693887
3382693888-3382695935
3382697984-3382700031
3382700032-3382702079
3382702080-3382704127
3382706176-3382738943
3382738944-3382771711
3382771712-3382788095
3382788096-3382804479
3382804480-3382820863
3382820864-3382829055
3382829056-3382837247
3382837248-3382853631
3382870016-3382902783
3382902784-3382968319
3382968320-3383099391
3383099392-3383132159
3383132160-3383148543
3383148544-3383164927
3383164928-3383197695
3383197696-3383230463
3383230464-3383295999
3383296000-3383361535
3383361536-3383427071
3383427072-3383492607
3383492608-3383558143
3383558144-3383623679
3383623680-3383689215
3383689216-3383697407
3383697408-3383701503
3383705600-3383721983
3383721984-3383754751
3426387968-3426388991
3427831552-3427831807
3428437504-3428437759
3430705152-3430706175
3430812672-3430813183
3430845440-3430845951
3432106240-3432106495
3432585216-3432585727
3450272512-3450272767
3489136640-3489144831
3489144832-3489153023
3489153024-3489153279
3489153280-3489153535
3489154048-3489154303
3489154304-3489154559
3489154560-3489154815
3489154816-3489155071
3489155072-3489155583
3489156608-3489157119
3489157632-3489158143
3489158144-3489158399
3489159168-3489160191
3489161216-3489162239
3489162240-3489162495
3489163264-3489163775
3489164288-3489165311
3489165312-3489165823
3489165824-3489166335
3489166848-3489167359
3489167360-3489167615
3489167872-3489168127
3489169408-3489177599
3489177600-3489185791
3489193984-3489202175
3489202176-3489210367
3489210368-3489218559
3489218560-3489226751
3489226752-3489234943
3489234944-3489243135
3489243136-3489251327
3489251328-3489259519
3489259520-3489267711
