86018048-86020095
90615808-90617855
94193664-94195711
100249600-100253695
520601600-520609791
521109504-521142271
621993984-621998079
622018560-622020607
772999168-773001215
773259264-773263359
775323648-775356415
779747328-779878399
781590528-781598719
781707264-781709311
782434304-782450687
782499840-782516223
783736832-783738879
788021248-788029439
788398080-788400127
788412416-788414463
788434944-788436991
1045749760-1045753855
1294336000-1294368767
1296746496-1296748543
1298038784-1298046975
1299120128-1299136511
1307213824-1307222015
1315905536-1315909631
1318658048-1318666239
1348128768-1348132863
1348460544-1348464639
1358356480-1358360575
1360125952-1360130047
1364897792-1364901887
1385496576-1385504767
1388322816-1388331007
1389772800-1389789183
1410654208-1410662399
1411895296-1411899391
1411973120-1412005887
1412726784-1412743167
1426046976-1426063359
1426718720-1426726911
1426726912-1426731007
1446641664-1446674431
1446838272-1446871039
1467449344-1467457535
1489502208-1489534975
1502478336-1502609407
1507065856-1507131391
1508470784-1508474879
1520271360-1520304127
1538899968-1538908159
1539543552-1539544063
1539702784-1539703039
1539716096-1539716351
1539727360-1539727615
1539731456-1539731711
1539751424-1539751679
1539757568-1539757823
1539774208-1539774463
1539783936-1539784191
1539800064-1539800319
1539801856-1539802111
1539804672-1539804927
1539809536-1539809791
1539819776-1539820031
1539828480-1539828735
1539981312-1539982335
1540365056-1540365311
1540380672-1540380927
1540384000-1540384255
1540390144-1540390399
1540401152-1540401407
1540409344-1540409599
1540415744-1540415999
1540428288-1540428543
1540436224-1540436479
1540457472-1540457727
1540460800-1540461055
1540462080-1540462335
1540470016-1540470271
1540471808-1540472063
1540476672-1540476927
1540484352-1540484607
1540487936-1540488191
1540626432-1540626687
1540654592-1540654847
1540671232-1540671487
1540673536-1540673791
1540684544-1540684799
1540706304-1540706559
1540708608-1540708863
1540719360-1540719615
1540723456-1540723711
1540747520-1540747775
1540896256-1540896511
1540901376-1540901631
1540904704-1540904959
1540910336-1540910591
1540926464-1540926719
1540971520-1540972031
1540979200-1540979711
1540980224-1540980735
1541004800-1541005055
1541013248-1541013503
1541158656-1541158911
1541164544-1541164799
1541171968-1541172223
1541175040-1541175295
1541184512-1541184767
1541194240-1541194495
1541199104-1541199359
1541201152-1541201407
1541206016-1541206271
1541253632-1541254143
1541347840-1541348095
1541351168-1541351423
1541352192-1541352447
1541353728-1541353983
1541361664-1541361919
1541370112-1541370367
1541370624-1541370879
1541383680-1541383935
1541385728-1541385983
1541387776-1541388031
1541389568-1541389823
1541390592-1541390847
1541391616-1541391871
1541400064-1541400319
1541402112-1541402367
1541450752-1541451263
1541467648-1541468159
1541496832-1541497855
1541557504-1541557759
1541600768-1541601023
1541614336-1541614591
1541631488-1541631999
1541721856-1541722111
1541752832-1541753087
1541822976-1541823231
1541860864-1541861119
1541990912-1541991167
1541992192-1541992447
1542038272-1542038527
1542148608-1542148863
1542189568-1542189823
1542193408-1542193663
1542267136-1542267391
1542292480-1542293503
1542414336-1542414847
1542439168-1542439423
1542451968-1542452223
1542468608-1542469631
1542510592-1542510847
1542832384-1542832639
1545928704-1545961471
1547010048-1547026431
1547636736-1547640831
1559511040-1559519231
1567031296-1567096831
1583824896-1583828991
1585387520-1585389567
1586249728-1586257919
1599569920-1599586303
1603244032-1603248127
1604304896-1604321279
1605402624-1605435391
1836777472-1836793855
1837088768-1837105151
1840644096-1840709631
1841985536-1841987583
1844424704-1844428799
2372511744-2372513791
2382348288-2382364671
2463367168-2463432703
2465667072-2465669119
2503884800-2503901183
2508095488-2508103679
2567241728-2567307263
2745106432-2745171967
2751987712-2752053247
2956230656-2956238847
2957770752-2957836287
2987659264-2987661311
2990145536-2990211071
2991538176-2991554559
2997616640-2997649407
3000514560-3000516607
3104650240-3104651263
3105367040-3105368063
3105622016-3105623039
3105689600-3105690623
3105721344-3105722367
3105785856-3105786879
3105959936-3105960959
3106516992-3106518015
3158317056-3158319103
3158337536-3158339583
3166961664-3167223807
3169222656-3169255423
3226753536-3226753791
3226754304-3226754559
3226754560-3226754815
3226754816-3226755071
3226755072-3226755327
3226755328-3226755583
3226755584-3226755839
3226755840-3226756095
3226756352-3226756607
3226756608-3226756863
3226756864-3226757119
3226757120-3226757375
3226757888-3226758143
3226758144-3226758399
3226758400-3226758655
3231715072-3231715327
3238065152-3238065407
3238133760-3238199295
3238595584-3238595839
3238597376-3238597631
3238597888-3238598143
3239079168-3239079423
3239090176-3239090431
3239117056-3239117311
3239174912-3239175167
3239304192-3239305215
3239522560-3239522815
3239525888-3239526143
3239545088-3239545343
3239639040-3239640063
3239713280-3239713535
3239762944-3239763199
3239875072-3239875327
3239979776-3239980031
3240324864-3240325119
3240372224-3240372479
3240698624-3240698879
3240698880-3240699135
3240712448-3240712703
3241035520-3241035775
3241036544-3241036799
3241117696-3241117951
3243048960-3243114495
3244277760-3244294143
3244820992-3244821247
3244824320-3244824575
3244852736-3244852991
3244878848-3244879103
3244879872-3244880127
3244889600-3244889855
3244901120-3244901375
3244913408-3244913663
3244916480-3244916735
3245177856-3245178111
3245204224-3245204479
3245215232-3245215743
3245248768-3245249023
3245326336-3245326847
3245333504-3245334527
3247046912-3247047167
3247047168-3247047423
3247047424-3247047679
3247047680-3247048191
3247048960-3247049215
3247054848-3247063039
3247338496-3247338751
3247346944-3247347199
3248785664-3248786943
3249090560-3249091071
3249716224-3249716479
3250424064-3250424319
3250429952-3250438143
3250747392-3250747903
3251109888-3251110143
3251162880-3251163135
3251186944-3251187199
3251201280-3251201535
3251203328-3251203583
3251215104-3251215231
3251217664-3251217919
3251229696-3251230719
3251310592-3251311103
3252313600-3252313855
3252380672-3252380927
3252382208-3252382463
3252386048-3252386303
3252514816-3252515071
3252515584-3252515839
3252983552-3252983807
3253901824-3253902079
3253963776-3253964287
3254824448-3254824959
3254828800-3254829055
3255233792-3255234047
3255235072-3255235327
3255328256-3255328767
3256642560-3256643583
3256945664-3256945919
3257357568-3257357823
3257455360-3257455615
3258091520-3258092031
3258092032-3258092287
3258099200-3258099455
3258693120-3258693375
3258693888-3258694143
3258731008-3258731263
3262039808-3262040063
3262045696-3262045951
3262434304-3262434815
3263087872-3263088127
3264741376-3264749567
3265617920-3265626111
3266342912-3266343167
3270648832-3270649087
3271008768-3271009279
3271098368-3271163903
3271926784-3271927039
3271927040-3271927295
3272904192-3272904447
3273882112-3273882367
3274408704-3274408959
3274409216-3274409471
3274415872-3274416127
3274687744-3274687999
3274691328-3274691583
3274691840-3274692095
3274694656-3274694911
3274695168-3274695423
3274695680-3274695935
3274699520-3274699775
3275900160-3275900415
3275909888-3275910143
3276103680-3276104703
3276857600-3276857855
3277176832-3277177087
3277345280-3277345791
3277823488-3277823743
3277824256-3277824511
3277827328-3277827583
3279978496-3279978751
3279981824-3279982079
3280126464-3280126719
3280651264-3280651519
3280652544-3280652799
3281000960-3281001215
3281346048-3281346303
3282743552-3282743807
3283252736-3283253247
3283500288-3283500543
3284041984-3284042239
3284049408-3284049663
3284099072-3284099327
3284715520-3284715775
3285368832-3285385215
3285777664-3285777919
3286315520-3286315775
3286661376-3286661631
3286927616-3286927871
3287640576-3287641087
3287666688-3287666943
3287668736-3287668991
3287677440-3287677695
3287678976-3287687167
3287827456-3287827711
3287955968-3287956223
3287990272-3287998463
3557679104-3557687295
3557957632-3557965823
3558752256-3558760447
3559677952-3559686143
3561512960-3561521151
3562381312-3562389503
3562921984-3562930175
3563421696-3563438079
3563552768-3563560959
3564519424-3564527615
3572203520-3572236287
3573903360-3573905407
3582910464-3582918655
3582935040-3582943231
3583893504-3583901695
3584098304-3584106495
3584876544-3584884735
3588603904-3588620287
3589931008-3589947391
3590144000-3590160383
3645390848-3645394943
3645394944-3645399039
