17170432-17301503
18219008-18350079
19267584-19398655
28966912-29032447
29032448-29097983
241172480-241434623
241565696-241598463
241623040-241627135
243990528-244056063
244056064-244318207
247595008-247726079
452997120-453001215
453246976-453509119
455274496-455278591
456130560-456261631
456262656-456263679
456564736-456572927
456654848-457179135
459297792-459298815
459341824-459407359
459541504-459542527
459931648-459964415
459997184-460062719
460128256-460136447
460454912-460455935
460591104-460593151
460599296-460600319
460600320-460601343
460726272-460734463
460940288-460941311
461062144-461078527
461101056-461102079
461111296-461127679
461228032-461229055
461623296-461625343
469237760-469499903
469729280-469762047
711458816-711983103
822870016-823001087
823001088-823132159
824180736-825229311
825376768-825393151
830499840-830500863
830513152-830517247
830996480-831258623
831519744-831520767
832323584-832339967
832339968-832348159
835190784-835452927
835452928-835715071
836050944-836059135
837550080-837566463
837689344-837697535
838336512-838369279
838369280-838385663
838385664-838393855
838393856-838397951
838397952-838398975
838398976-838399487
838399488-838399999
838400000-838402047
838402048-838410239
838410240-838410495
838410496-838410751
838410752-838411263
838411264-838412287
838412288-838414335
838414336-838418431
838418432-838434815
838434816-838467583
973209600-973275135
977534976-977567743
982671360-982679551
995622912-996147199
996147200-996409343
999292928-999423999
1000341504-1000603647
1000603648-1000734719
1001390080-1001914367
1001914368-1002045439
1022558208-1022623743
1023279104-1023311871
1023410176-1023475711
1023475712-1023541247
1023541248-1023672319
1023967232-1023975423
1024131072-1024139263
1024139264-1024147455
1024147456-1024163839
1024196608-1024204799
1024204800-1024208895
1024208896-1024212991
1024212992-1024221183
1024221184-1024229375
1024491520-1024495615
1024495616-1024499711
1024499712-1024507903
1024507904-1024524287
1024524288-1024557055
1024557056-1024589823
1029668864-1029685247
1029685248-1029693439
1029693440-1029697535
1029697536-1029701631
1039532032-1039597567
1039654912-1039663103
1542641152-1542641663
1694507008-1694515199
1694629888-1694662655
1698168832-1698693119
1708130304-1709178879
1728120320-1728120575
1728139264-1728140287
1728144384-1728145407
1728147456-1728148479
1728150528-1728151551
1728151552-1728152575
1728168960-1728169983
1728204800-1728205823
1728218112-1728219135
1728243712-1728244735
1728244736-1728245759
1728245760-1728246783
1728258048-1728259071
1728260096-1728261119
1728302080-1728303103
1728308224-1728309247
1728367616-1728367871
1728368640-1728369663
1728371712-1728372735
1728375040-1728375295
1728378880-1728379903
1728379904-1728380927
1728385024-1728386047
1728398848-1728399103
1728400896-1728401151
1728402432-1728403455
1728409600-1728410623
1728414720-1728415743
1728428032-1728429055
1728429056-1728430079
1728432128-1728433151
1728436224-1728437247
1728443392-1728444415
1728446976-1728447231
1728447232-1728447487
1728453120-1728453375
1728453376-1728453631
1728454656-1728455167
1728468992-1728469247
1728474112-1728475135
1728476928-1728477183
1728480256-1728481279
1728486400-1728487423
1728488448-1728488703
1728489216-1728489471
1728489472-1728490495
1728493568-1728494591
1728512768-1728513023
1728528384-1728529407
1728532480-1728533503
1728539648-1728540671
1728544768-1728545791
1728549120-1728549375
1728549888-1728550911
1728558080-1728559103
1728564224-1728565247
1728586752-1728587775
1728587776-1728588799
1728588800-1728589823
1728593408-1728593663
1728607232-1728608255
1728609024-1728609279
1728609280-1728610303
1728615424-1728616447
1728619520-1728620543
1728625664-1728626175
1728626688-1728627711
1728632576-1728632831
1728632832-1728633855
1728641024-1728642047
1728646144-1728647167
1728661504-1728662527
1728676864-1728677887
1728699904-1728700415
1728700672-1728700927
1728702464-1728703487
1728710912-1728711167
1728714752-1728715775
1728738304-1728739327
1728741120-1728741375
1728742400-1728743423
1728751616-1728751871
1728754688-1728755711
1728756736-1728757759
1728761856-1728762879
1728765440-1728765695
1728765952-1728766975
1728768512-1728769023
1728772096-1728773119
1728773120-1728773375
1728779264-1728779519
1728794624-1728795647
1728795648-1728796671
1728803840-1728804863
1728813056-1728814079
1728831488-1728832511
1728833536-1728834559
1728839936-1728840191
1728845824-1728846847
1728869376-1728870399
1728871424-1728872447
1728873472-1728874495
1728879616-1728880127
1728882688-1728883711
1728888832-1728889855
1728893696-1728893951
1728902400-1728902655
1728905728-1728906239
1728929792-1728930815
1728932864-1728933887
1728939776-1728940031
1728950784-1728951295
1728951296-1728951551
1728952064-1728952319
1728961280-1728961535
1728966656-1728967679
1728971264-1728971519
1728982528-1728982783
1728995328-1728995839
1728995840-1728996095
1729001472-1729002495
1729002496-1729003519
1729011712-1729012735
1729016832-1729017855
1729018880-1729019903
1729024000-1729025023
1729030144-1729031167
1729049600-1729050623
1729051648-1729052671
1729052672-1729053695
1729055232-1729055487
1729056768-1729057791
1729068032-1729068287
1729076992-1729077247
1729082112-1729082367
1729094144-1729094655
1729099776-1729100287
1729100288-1729100543
1729102848-1729103359
1729103360-1729103871
1729104896-1729105407
1729105408-1729105663
1729107968-1729108479
1729108992-1729110015
1729110016-1729111039
1729113088-1729113599
1729113600-1729113855
1729113856-1729114111
1729114624-1729114879
1729116160-1729117183
1729119232-1729120255
1729121280-1729121535
1729127424-1729127679
1729127680-1729127935
1729128448-1729129471
1729137664-1729138687
1729138688-1729139711
1729143808-1729144831
1729146880-1729147903
1729152000-1729152255
1729153024-1729154047
1729155072-1729155583
1729158400-1729158655
1729158656-1729158911
1729167360-1729168383
1729171968-1729172223
1729179648-1729180671
1729187840-1729188863
1729188864-1729189887
1729191936-1729192959
1729192960-1729193983
1729193984-1729195007
1729200128-1729201151
1729207296-1729208319
1729217024-1729217535
1729249280-1729250303
1729250304-1729251327
1729251328-1729252351
1729259520-1729260543
1729263616-1729264639
1729268736-1729269759
1729271808-1729272063
1729272832-1729273855
1729274880-1729275903
1729275904-1729276927
1729288192-1729289215
1729294848-1729295103
1729302784-1729303039
1729303040-1729303551
1729311744-1729312767
1729320960-1729321983
1729331200-1729331711
1729332224-1729333247
1729333248-1729334271
1729334272-1729335295
1729336320-1729337343
1729337344-1729338367
1729341440-1729341951
1729348608-1729349631
1729349632-1729350655
1729352704-1729353727
1729353984-1729354239
1729355776-1729356799
1729361920-1729362943
1729371136-1729372159
1729378304-1729378559
1729378560-1729378815
1729380352-1729381375
1729389568-1729390591
1729390592-1729391103
1729395968-1729396223
1729396224-1729396735
1729405952-1729406207
1729418240-1729419263
1729419776-1729420031
1729433600-1729433855
1729434112-1729434623
1729442816-1729443839
1729444352-1729444863
1729446400-1729446655
1729446656-1729446911
1729448960-1729449983
1729450496-1729451007
1729461248-1729462271
1729470464-1729471487
1729476608-1729477631
1729479424-1729479679
1729488896-1729489919
1729539072-1729540095
1729544192-1729545215
1729555456-1729556479
1729566720-1729567743
1729567744-1729567999
1729568000-1729568255
1729590784-1729591295
1729592320-1729593343
1729596416-1729596671
1729598976-1729599231
1729615360-1729615615
1729615616-1729615871
1729620992-1729622015
1729631232-1729632255
1729635328-1729636351
1729637888-1729638143
1729641472-1729642495
1729646592-1729647615
1729647616-1729648639
1729648640-1729649663
1729653760-1729654783
1729657856-1729658879
1729660672-1729660927
1729670144-1729671167
1729672192-1729673215
1729674240-1729675263
1729677312-1729678335
1729685504-1729686527
1729686528-1729687551
1729691648-1729692671
1729692672-1729693695
1729694208-1729694719
1729702912-1729703935
1729713152-1729714175
1729715200-1729716223
1729721088-1729721343
1729722368-1729723391
1729723392-1729724415
1729724416-1729725439
1729725440-1729726463
1729730560-1729731583
1729734656-1729735679
1729735680-1729736703
1729743872-1729744895
1729747968-1729748223
1729748992-1729750015
1729750528-1729750783
1729750784-1729751039
1729759232-1729760255
1729769472-1729770495
1729770496-1729771519
1729771520-1729772543
1729775616-1729776127
1729776640-1729777663
1729781760-1729782783
1729783808-1729784831
1729784832-1729785855
1729793024-1729794047
1729800192-1729800447
1729800448-1729800703
1729808384-1729808639
1729808640-1729808895
1729809408-1729810431
1729812480-1729813503
1729814528-1729815551
1729816576-1729817599
1729823232-1729823487
1729824768-1729825791
1729826816-1729827839
1729835008-1729836031
1729844224-1729845247
1729853440-1729853695
1729858560-1729859583
1729864704-1729865727
1729865728-1729866751
1729882112-1729883135
1729888000-1729888255
1729915136-1729915391
1729924096-1729925119
1729928192-1729929215
1729934336-1729935359
1729949696-1729950207
1729952768-1729953791
1729960960-1729961215
1729961216-1729961471
1729961984-1729963007
1729963008-1729964031
1729965056-1729966079
1729978368-1729979391
1729983488-1729984511
1729993728-1729994751
1730004224-1730004479
1730007040-1730008063
1730010112-1730011135
1730013184-1730014207
1730017280-1730017535
1730017536-1730017791
1730022400-1730023423
1730039808-1730040831
1730055168-1730056191
1730058240-1730059263
1730068480-1730069503
1730091776-1730092031
1730121728-1730122751
1730132992-1730134015
1730139136-1730140159
1743783936-1743784959
1743790080-1743791103
1743801344-1743802367
1743804672-1743804927
1743804928-1743805439
1743806464-1743807487
1743807488-1743808511
1743808512-1743809535
1743816704-1743817727
1743818752-1743819775
1743822848-1743823871
1743823872-1743824895
1743824896-1743825919
1743830016-1743831039
1743831040-1743832063
1743834112-1743835135
1743835136-1743836159
1743836160-1743837183
1743837184-1743838207
1743841280-1743842303
1743842304-1743843327
1743849472-1743850495
1743852544-1743853567
1743853824-1743854079
1743857664-1743858687
1743858688-1743859711
1743860736-1743861759
1743876096-1743877119
1743881216-1743882239
1743882240-1743883263
1743883264-1743884287
1743884288-1743885311
1743890432-1743891455
1743893504-1743894527
1743901696-1743902719
1743904768-1743905791
1743905792-1743906815
1743906816-1743907839
1743907840-1743908863
1743909376-1743909631
1743909632-1743909887
1743909888-1743910911
1743928320-1743929343
1743932416-1743933439
1743942656-1743943679
1743943680-1743944703
1743951872-1743952895
1743952896-1743953919
1743960064-1743961087
1743961088-1743962111
1743962112-1743963135
1743963136-1743964159
1743970304-1743971327
1743972352-1743972607
1743972864-1743973119
1743973376-1743974399
1743980544-1743981567
1743983360-1743983615
1743985664-1743986687
1743986688-1743987711
1743987712-1743988735
1743988736-1743989759
1743989760-1743990783
1743990784-1743991807
1743991808-1743992831
1743992832-1743993855
1743993856-1743994879
1743995904-1743996927
1743996928-1743997951
1744001024-1744001535
1744006912-1744007167
1744007168-1744008191
1744008192-1744009215
1744012288-1744013311
1744015360-1744016383
1744023552-1744023807
1744025600-1744026623
1744035840-1744036863
1744036864-1744037887
1744037888-1744038911
1744038912-1744039167
1744039168-1744039423
1744056320-1744056575
1744074752-1744075775
1744075776-1744076799
1744082944-1744083967
1744087040-1744088063
1744092672-1744092927
1744105472-1744106495
1744106496-1744106751
1744109568-1744109823
1744109824-1744110079
1744110080-1744110591
1744111616-1744112639
1744112640-1744113663
1744114688-1744114943
1744114944-1744115199
1744115200-1744115455
1744117760-1744118783
1744120832-1744121855
1744121856-1744122879
1744125952-1744126975
1744126976-1744127999
1744128512-1744128767
1744135168-1744136191
1744136192-1744137215
1744138240-1744139263
1744139264-1744140287
1744146432-1744146687
1744147200-1744147455
1744149504-1744150527
1744154624-1744154879
1744156672-1744157695
1744157696-1744157951
1744157952-1744158207
1744159744-1744160767
1744160768-1744161791
1744186368-1744187391
1744187392-1744187903
1744191488-1744192511
1744196608-1744197631
1744202240-1744202495
1744218624-1744219135
1744225280-1744226303
1744229376-1744230399
1744232448-1744233471
1744236544-1744237567
1744247808-1744248831
1744261120-1744262143
1744265216-1744266239
1744267264-1744268287
1744278528-1744279551
1744293888-1744294143
1744294144-1744294399
1744294400-1744294655
1744303616-1744303871
1744312320-1744312575
1744313344-1744314367
1744314368-1744315391
1744321536-1744322559
1744324608-1744325631
1744326656-1744327679
1744327680-1744328703
1744329728-1744330751
1744334848-1744335871
1744335872-1744336895
1744336896-1744337919
1744346112-1744347135
1744350208-1744351231
1744359424-1744360447
1744365568-1744366591
1744368640-1744369663
1744372736-1744373759
1744375808-1744376319
1744376320-1744376831
1744377856-1744378879
1744380928-1744381951
1744381952-1744382975
1744382976-1744383999
1744391168-1744392191
1744392192-1744393215
1744394240-1744395263
1744396288-1744397311
1744402432-1744403455
1744417792-1744418303
1744423936-1744424959
1744425728-1744425983
1744429568-1744429823
1744431104-1744432127
1744432128-1744433151
1744433152-1744434175
1744435200-1744436223
1744439808-1744440319
1744441344-1744442367
1744444416-1744444927
1744444928-1744445183
1744445184-1744445439
1744447488-1744447743
1744448512-1744449535
1744453120-1744453375
1744456704-1744457727
1744457728-1744458751
1744458752-1744459775
1744465920-1744466943
1744472064-1744473087
1744474112-1744475135
1744475136-1744476159
1744476160-1744477183
1744477184-1744478207
1744478208-1744479231
1744479232-1744480255
1744480256-1744481279
1744482304-1744483327
1744484352-1744484863
1744484864-1744485119
1744485376-1744486399
1744490496-1744491519
1744506880-1744507903
1744507904-1744508927
1744508928-1744509951
1744509952-1744510975
1744513792-1744514047
1744514560-1744514815
1744515072-1744516095
1744517120-1744518143
1744518144-1744519167
1744523264-1744524287
1744526336-1744527359
1744528384-1744529407
1744540672-1744541695
1744549888-1744550911
1744550912-1744551935
1744556032-1744557055
1744557056-1744558079
1744558080-1744559103
1744559104-1744560127
1744560128-1744561151
1744561152-1744562175
1744566272-1744567295
1744569344-1744570367
1744574464-1744575487
1744576512-1744577535
1744578560-1744579583
1744579584-1744580095
1744580096-1744580351
1744580352-1744580607
1744583680-1744584703
1744590336-1744590591
1744591872-1744592895
1744592896-1744593919
1744595968-1744596991
1744604160-1744604671
1744604672-1744605183
1744605184-1744606207
1744606208-1744607231
1744608256-1744609279
1744609280-1744609535
1744609536-1744609791
1744610304-1744611327
1744611328-1744612351
1744615424-1744616447
1744617472-1744618495
1744622592-1744623615
1744623616-1744624639
1744624640-1744625663
1744628736-1744629759
1744631040-1744631295
1744638976-1744639999
1744641024-1744642047
1744642048-1744643071
1744643072-1744643583
1744647168-1744648191
1744651776-1744652031
1744652032-1744652287
1744660480-1744660735
1744665856-1744666111
1744671744-1744672767
1744672768-1744673791
1744676352-1744676863
1744676864-1744677887
1744677888-1744678911
1744685056-1744686079
1744687104-1744688127
1744692224-1744693247
1744706304-1744706559
1744706560-1744707583
1744707584-1744708607
1744712704-1744713727
1744713728-1744714751
1744719872-1744720895
1744723968-1744724991
1744724992-1744726015
1744731136-1744731647
1744732160-1744733183
1744740352-1744741375
1744743424-1744744447
1744750592-1744751615
1744751616-1744752639
1744758272-1744758527
1744759808-1744760831
1744760832-1744761855
1781727232-1781792767
1782710272-1782841343
1783365632-1783627775
1790967808-1793064959
1845839872-1845841919
1848778752-1848786943
1850515456-1850519551
1856770048-1856772095
1856772096-1856774143
1856779264-1856780287
1856798720-1856815103
1856876544-1856880639
1860173824-1860435967
1860744192-1860745215
1860761600-1860763647
1860829184-1860960255
1868212224-1868214271
1868234752-1868267519
1868292096-1868294143
1868300288-1868333055
1868365824-1868431359
1870049280-1870053375
1870058496-1870059519
1870065664-1870069759
1870118912-1870135295
1870497792-1870499839
1870512128-1870520319
1870520320-1870522367
1870522368-1870523391
1870523392-1870523647
1870523648-1870523903
1870523904-1870524415
1870524416-1870524671
1870524672-1870524927
1870524928-1870525183
1870525184-1870525439
1870525440-1870525695
1870525696-1870525951
1870525952-1870526463
1870526464-1870526719
1870526720-1870526975
1870526976-1870527487
1870527488-1870528511
1877688320-1877689343
1877690368-1877691391
1877709824-1877710847
1884225536-1884291071
1886216192-1886224383
1886257152-1886322687
1886990336-1886994431
1887813632-1887830015
1891893248-1891926015
1891926016-1891942399
1896603648-1896605695
1897070592-1897136127
1897140224-1897141247
1897218048-1897222143
1897824256-1897857023
1908473856-1908539391
1908762624-1908763647
1909735424-1909743615
1914587136-1914589183
1914667008-1914683391
1914691584-1914695679
1914697728-1914699775
1917181952-1917190143
1917812736-1917829119
1917829120-1917845503
1921943552-1921945599
1921974272-1922039807
1933922304-1933926399
1933934592-1933942783
1933963264-1933967359
1935671296-1935933439
1936457728-1936719871
1936719872-1937244159
1937516544-1937518591
1937530880-1937534975
1937534976-1937539071
1939914752-1939918847
1939918848-1939922943
1939922944-1939927039
1939927040-1939931135
1941069824-1941071871
1941438464-1941569535
1941635072-1941639167
1941643264-1941651455
1945108480-1946157055
1949450240-1949466623
1950515200-1950523391
1950629888-1950646271
1950674944-1950676991
1950875648-1951137791
1952116736-1952120831
1953955840-1954021375
1958838272-1958840319
1958840320-1958842367
1958846464-1958847487
1959241728-1959243775
1959395328-1959526399
1960095744-1960097791
1960187904-1960189951
1966600192-1966602239
1969225728-1969487871
1969715200-1969717247
1969809408-1969811455
1975517184-1979711487
1984159744-1984167935
1985478656-1985480703
1985720320-1985724415
1985734656-1985736703
1985871872-1986002943
1986428928-1986461695
1989660672-1989661695
1997680640-1997684735
1998561280-1998565375
1999280128-1999282175
1999306752-1999372287
2001879040-2001895423
2006384640-2006417407
2006417408-2006433791
2007023616-2007025663
2011299840-2011430911
2011901952-2011903999
2011904000-2011906047
2013040640-2013044735
2013052928-2013061119
2015215616-2015223807
2015225856-2015227903
2016935936-2017460223
2018007040-2018009087
2019041280-2019045375
2019078144-2019082239
2019117056-2019119103
2022334464-2022342655
2022359040-2022375423
2033319936-2033321983
2033887232-2033889279
2036699136-2036703231
2043162624-2043164671
2043164672-2043165695
2045771776-2046296063
2050099200-2050101247
2050129920-2050162687
2053242880-2053308415
2053340160-2053341183
2053511168-2053513215
2053534720-2053535743
2053535744-2053537791
2056261632-2056263679
2057306112-2058354687
2058354688-2058878975
2058878976-2059141119
2059931648-2059933695
2063392768-2063400959
2063550464-2063551487
2067726336-2067791871
2070683648-2070691839
2070726656-2070728703
2070732800-2070734847
2072514560-2072516607
2072543232-2072575999
2075140096-2075144191
2076770304-2076835839
2079064064-2079326207
2079518720-2079522815
2080145408-2080161791
2080161792-2080178175
2080372736-2080373759
2080373760-2080374783
2080636928-2080702463
2080833536-2080849919
2080849920-2080866303
2080866304-2080899071
2082340864-2082406399
2083058688-2083059711
2088435712-2088501247
2088501248-2088632319
2090240000-2090240255
2090418176-2090434559
2090594304-2090598399
2090736640-2090737663
2096611328-2096627711
2096955392-2097020927
2098200576-2098724863
2101239808-2101247999
2101248000-2101264383
2101264384-2101268479
2101268480-2101270527
2101297152-2101313535
2103640064-2103705599
2293825536-2293891071
2416967680-2417033215
2553544704-2553610239
2660237312-2660302847
2721579008-2721644543
2758017024-2758082559
2762211328-2762276863
2770993152-2771124223
2872049664-2873098239
2873884672-2874146815
2938634240-2938699775
2942599168-2942607359
2942607360-2942608383
2942609408-2942611455
2942611456-2942615551
2942631936-2942697471
2946383872-2946392063
2947596288-2947597311
2948135936-2948136959
3025600512-3025633279
3025633280-3025649663
3025649664-3025666047
3025969152-3025973247
3025979392-3025981439
3029601280-3029602303
3029606400-3029614591
3029671936-3029672959
3029672960-3029673983
3029673984-3029676031
3029676032-3029680127
3029725184-3029727231
3029790720-3029791743
3029792768-3029793791
3029794816-3029860351
3031564288-3031572479
3031629824-3031695359
3032276992-3032285183
3033067520-3033068543
3033743360-3033745407
3033747456-3033748479
3033751552-3033759743
3033956352-3033964543
3033989120-3034054655
3034472448-3034476543
3034476544-3034478591
3034502144-3034503167
3035199488-3035200511
3054665728-3054682111
3054698496-3054731263
3054993408-3054997503
3056648192-3056664575
3057123328-3057385471
3057385472-3057451007
3057647616-3058696191
3059613696-3059744767
3063676928-3063742463
3064807424-3064808447
3068987392-3068989439
3068989440-3068990463
3068991488-3068992511
3069018112-3069034495
3075389440-3075390463
3075604480-3075735551
3075932160-3075940351
3075940352-3075948543
3075948544-3075964927
3075964928-3075973119
3075973120-3075981311
3075981312-3075997695
3081862144-3081863167
3082179584-3082180607
3082180608-3082181631
3288400128-3288400383
3288417280-3288417535
3288426496-3288426751
3288426752-3288427007
3288427008-3288427263
3288427776-3288428031
3288428032-3288428543
3288428800-3288429055
3288429056-3288429311
3288434176-3288434431
3288547584-3288547839
3289128960-3289137151
3289321472-3289325567
3349553664-3349554175
3349554176-3349554687
3389024000-3389024255
3389025536-3389025791
3389026304-3389026559
3389027072-3389027327
3389027328-3389027583
3389064192-3389064447
3389093888-3389095935
3389197568-3389197823
3389198080-3389198335
3389210624-3389210879
3389211136-3389211391
3389213440-3389213695
3389213696-3389213951
3389213952-3389214207
3389222912-3389227007
3389266176-3389266431
3389301760-3389302015
3389303808-3389304063
3389305088-3389305343
3389305344-3389305599
3389305856-3389306111
3389306368-3389306623
3389411328-3389411583
3389416192-3389416447
3389469696-3389470719
3389470720-3389471743
3389606656-3389606911
3389610752-3389611007
3389611008-3389611519
3389620224-3389628415
3389628416-3389636607
3389636608-3389640703
3389661184-3389669375
3389788160-3389788415
3389804544-3389805567
3389809920-3389810175
3389810432-3389810687
3389933568-3389933823
3389956096-3389956607
3389956608-3389957119
3390340608-3390340863
3390408192-3390408703
3390769408-3390769663
3391532032-3391533055
3391534080-3391535103
3391620608-3391620863
3391684608-3391685119
3391685120-3391685631
3391687168-3391687423
3391688704-3391692799
3391692800-3391700991
3391700992-3391701247
3391701248-3391701503
3391701504-3391701759
3391701760-3391702015
3391702016-3391702271
3391702272-3391702527
3391702528-3391702783
3391702784-3391703039
3391703040-3391704063
3391704064-3391705087
3391705088-3391705343
3391705344-3391705599
3391705600-3391705855
3391705856-3391706111
3391706112-3391706367
3391706368-3391706623
3391706624-3391707135
3391707136-3391708159
3391708160-3391709183
3391709184-3391717375
3391717632-3391717887
3391718400-3391718655
3391718656-3391718911
3391722496-3391723519
3391736832-3391737087
3391737088-3391737343
3391737344-3391737855
3391832832-3391833087
3391838720-3391838975
3391895552-3391896575
3391948288-3391948799
3391949312-3391949823
3392017152-3392017407
3392017920-3392018431
3392061440-3392065535
3392065536-3392069631
3392106496-3392108543
3392110336-3392110591
3392406016-3392406527
3392415744-3392415999
3392416768-3392417023
3392419072-3392419327
3392419840-3392420351
3392421376-3392421887
3392438272-3392438527
3392438784-3392439039
3392439808-3392440063
3392443392-3392443647
3392443904-3392444159
3392444672-3392444927
3392445696-3392445951
3392473088-3392475135
3392487424-3392495615
3392495616-3392499711
3392536576-3392537599
3392537600-3392538623
3392538624-3392540671
3392540672-3392544767
3392544768-3392552959
3392552960-3392569343
3392569344-3392602111
3392667648-3392668671
3392682496-3392683007
3392692224-3392700415
3392716800-3392724991
3392724992-3392733183
3392733184-3392734207
3392824832-3392825343
3392829440-3392830463
3392830720-3392830975
3392831232-3392831487
3392832512-3392833535
3392857088-3392857343
3392858112-3392858367
3392858368-3392858623
3392864768-3392865279
3392922624-3392922879
3392923392-3392923647
3392926720-3392926975
3392926976-3392927231
3392927744-3392927999
3392945152-3392946175
3392962560-3392963583
3392983040-3392987135
3392997376-3392998399
3393021440-3393021695
3393023744-3393023999
3393025280-3393025535
3393077248-3393085439
3393090560-3393091071
3393118208-3393122303
3393123328-3393123583
3393123840-3393124095
3393124096-3393124351
3393150976-3393159167
3393190912-3393191167
3393290240-3393298431
3393389568-3393390591
3393486848-3393495039
3393618688-3393618943
3393650688-3393658879
3393683456-3393691647
3393779712-3393780735
3393860864-3393861119
3393861120-3393861375
3393861376-3393861631
3393961984-3393966079
3394078976-3394079231
3394150400-3394154495
3394168832-3394170879
3394173696-3394173951
3394252800-3394256895
3394338816-3394347007
3394355200-3394359295
3394441216-3394445311
3394445312-3394453503
3394634752-3394635775
3394697984-3394698239
3394707456-3394715647
3394797568-3394805759
3394805760-3394809855
3394809856-3394813951
3394818048-3394822143
3394822144-3394826239
3394826240-3394830335
3394846720-3394850815
3394856960-3394857983
3394857984-3394859007
3394860544-3394860799
3394860800-3394861055
3394904320-3394904575
3394906112-3394906367
3394906624-3394907135
3394920448-3394924543
3394945024-3394945279
3394948096-3394948351
3394977792-3394985983
3394995200-3394996223
3394996224-3394998271
3395084288-3395088383
3395131904-3395132159
3395175168-3395175423
3395175424-3395175679
3395176960-3395177215
3395287808-3395288063
3396997120-3396999167
3397027328-3397027839
3397066752-3397070847
3397173760-3397174015
3397175808-3397176063
3397187584-3397189631
3397213184-3397213439
3397216768-3397217023
3397413632-3397413887
3397414400-3397414911
3397501952-3397502975
3397502976-3397503999
3397505280-3397505535
3397505536-3397506047
3397506048-3397506559
3397506816-3397507071
3397507840-3397508095
3397512960-3397513215
3397513216-3397513727
3397527552-3397528575
3397607424-3397615615
3397615616-3397623807
3397726208-3397730303
3397792768-3397793023
3397794560-3397794815
3397816320-3397820415
3397820416-3397824511
3397824512-3397828607
3397828608-3397832703
3398029312-3398033407
3398033920-3398034431
3398034432-3398034943
3398035456-3398037503
3398039552-3398040575
3398066176-3398074367
3398180864-3398184959
3398184960-3398189055
3398207488-3398208511
3398238208-3398238463
3398238464-3398238719
3398238720-3398239231
3398239232-3398240255
3398240256-3398242303
3398242304-3398246399
3398246400-3398254591
3398254592-3398270975
3398270976-3398279167
3398295552-3398303743
3398303744-3398304767
3398304768-3398305791
3398320128-3398328319
3398328320-3398336511
3398369280-3398369791
3398434816-3398443007
3398443008-3398451199
3398451200-3398467583
3398615040-3398616063
3398746112-3398750207
3398811648-3398815743
3398815744-3398819839
3398829056-3398830079
3399032832-3399036927
3399131136-3399135231
3399303168-3399311359
3399467008-3399483391
3399524352-3399528447
3399626752-3399630847
3399662592-3399663615
3399671808-3399679999
3399751680-3399751935
3399751936-3399752191
3399753728-3399757823
3399757824-3399761919
3399778304-3399786495
3399826944-3399827455
3399923712-3399923967
3400030208-3400031231
3400031744-3400031999
3400264192-3400264447
3400265472-3400265727
3400271616-3400271871
3400402176-3400402431
3400424448-3400425471
3400431616-3400431871
3400432128-3400432639
3400608768-3400609791
3400630272-3400634367
3400634368-3400638463
3400638464-3400646655
3400654848-3400663039
3400744960-3400753151
3401007104-3401011199
3401441280-3401449471
3401531392-3401532415
3401547776-3401580543
3406221312-3406223359
3406327040-3406327295
3406328832-3406329343
3406350592-3406350847
3406512384-3406512639
3406618112-3406618623
3406637056-3406637311
3406669824-3406670847
3406696960-3406697215
3406865664-3406865919
3406896896-3406897151
3406938624-3406938879
3406961152-3406961407
3406967552-3406967807
3406989568-3406989823
3407020800-3407021055
3407152896-3407153151
3407369984-3407370239
3407604480-3407604735
3407808512-3407809023
3407873024-3407873535
3407928576-3407928831
3407988224-3407988735
3408033024-3408033279
3409420288-3409420543
3409423616-3409423871
3409882112-3409883135
3410788352-3410792447
3410800640-3410804735
3410866432-3410866687
3410870272-3410874367
3410887680-3410887935
3410919424-3410923519
3410939904-3410943999
3410958336-3410958847
3411149824-3411150847
3411204608-3411204863
3411212288-3411212799
3411212800-3411213311
3411542016-3411550207
3411574784-3411582975
3411608576-3411608831
3411641344-3411641599
3411641856-3411642367
3411646208-3411646463
3411646464-3411647487
3411674112-3411674623
3411689472-3411697663
3411697664-3411698687
3411698688-3411699711
3411699712-3411701759
3411701760-3411705855
3411787776-3411795967
3411812352-3411820543
3411853312-3411857407
3411984384-3411988479
3411988480-3411990527
3411990528-3411991551
3411991552-3411992575
3411992576-3412000767
3412221952-3412230143
3412273152-3412275199
3412312064-3412320255
3412344832-3412348927
3412393984-3412426751
3412594688-3412596735
3412697088-3412705279
3412934656-3412942847
3412942848-3412951039
3413004288-3413008383
3413045248-3413047295
3413112832-3413113855
3413147648-3413155839
3413305344-3413306367
3413307392-3413308415
3413327872-3413331967
3413331968-3413336063
3413336064-3413344255
3413586176-3413586431
3413586432-3413586687
3413770240-3413786623
3413843968-3413848063
3413868544-3413884927
3413905408-3413907455
3413934080-3413938175
3413938176-3413942271
3413942272-3413946367
3413950464-3413958655
3413958656-3413966847
3414278144-3414282239
3414282240-3414284287
3414284288-3414286335
3414286336-3414294527
3414458368-3414466559
3414478848-3414482943
3414605824-3414614015
3414614016-3414616063
3414620672-3414621183
3414670336-3414670591
3415137280-3415137535
3415191552-3415195647
3415310336-3415312383
3415312384-3415314431
3415314432-3415318527
3415318528-3415326719
3415431168-3415432191
3415810048-3415814143
3415814144-3415814399
3415815168-3415816191
3415855616-3415856127
3416145920-3416154111
3416295424-3416295679
3416295936-3416296447
3416371968-3416372223
3416374528-3416374783
3416514560-3416522751
3416922368-3416922623
3416928256-3416928511
3416931328-3416931839
3416931840-3416932095
3416932096-3416932351
3417035008-3417035263
3417035264-3417035775
3417038336-3417038591
3417042944-3417044991
3417244672-3417245695
3417288704-3417288959
3417288960-3417289215
3417289728-3417290751
3417290752-3417291007
3417291008-3417291263
3417337856-3417338367
3417348352-3417348607
3417349120-3417349631
3417947136-3417947391
3417947904-3417948159
3418079232-3418083327
3418083328-3418087423
3418087424-3418091519
3418091520-3418095615
3418152960-3418155007
3418162432-3418162687
3418167296-3418167551
3418184192-3418184447
3418184448-3418184703
3418184704-3418184959
3418206208-3418208255
3418259456-3418263551
3418263552-3418267647
3418281984-3418282239
3418290176-3418290431
3418300928-3418301439
3418406912-3418411007
3418411008-3418415103
3418415104-3418423295
3418456064-3418464255
3418464256-3418472447
3418513408-3418517503
3418652672-3418656767
3418656768-3418660863
3418660864-3418669055
3418669056-3418677247
3418677248-3418685439
3418685440-3418750975
3418816512-3418882047
3418882048-3418947583
3418962944-3418963967
3418996736-3419013119
3419356672-3419356927
3419356928-3419357183
3419560960-3419561983
3419674624-3419675647
3419684864-3419685119
3419685120-3419685375
3419685376-3419685887
3419685888-3419686911
3419686912-3419688959
3419717632-3419734015
3419878144-3419878399
3420030976-3420031999
3420033024-3420034047
3420040704-3420040959
3420434432-3420434687
3420437504-3420438527
3448990720-3448991743
3523690496-3523698687
3524395008-3524427775
3524427776-3524435967
3524435968-3524444159
3526909952-3526918143
3526922240-3526924287
3529056256-3529064447
3536977920-3537010687
3537076224-3537108991
3537108992-3537174527
3537240064-3537272831
3537272832-3537305599
3663998976-3663999487
3673686016-3673751551
3678404608-3678535679
3680133120-3680137215
3680206848-3680223231
3680223232-3680231423
3680231424-3680239615
3701258240-3701260287
3705667584-3705929727
3715655680-3715657727
3716546560-3716562943
3716562944-3716579327
3716579328-3716612095
3716612096-3716677631
3743031296-3743035391
3743119360-3743120383
3743268864-3743272959
3743285248-3743416319
3749839872-3749840895
3752138752-3752140799
3752853504-3753902079
3754164224-3754229759
3755966464-3755974655
3755999232-3757047807
3758093312-3758094335
