86824960-86827007
93904896-93906943
95617024-95625215
521715712-521717759
522866688-522870783
531238912-531240959
630499328-630501375
634068992-634071039
634494976-634497023
773033984-773036031
773048320-773050367
773267456-773271551
773601280-773603327
778895360-778960895
783800320-783802367
1044348928-1044365311
1045692416-1045700607
1045757952-1045766143
1045766144-1045774335
1045774336-1045790719
1048186880-1048188927
1053671424-1053687807
1294368768-1294401535
1297940480-1297948671
1307680768-1307684863
1310507008-1310523391
1314127872-1314193407
1318748160-1318756351
1334067200-1334075391
1334280192-1334288383
1346768896-1346772991
1347493888-1347497983
1347497984-1347502079
1348075520-1348079615
1348079616-1348083711
1357414400-1357447167
1357479936-1357512703
1358573568-1358577663
1358876672-1358880767
1358946304-1358950399
1365172224-1365176319
1369655296-1369657343
1371930624-1371996159
1388396544-1388404735
1399029760-1399062527
1401456640-1401458687
1407156224-1407164415
1408303104-1408335871
1408456704-1408458751
1411809280-1411813375
1424850944-1424883711
1425391616-1425407999
1426702336-1426718719
1427095552-1427111935
1428119552-1428121599
1433624576-1433632767
1436436480-1436438527
1441439744-1441447935
1442709504-1442742271
1442742272-1442758655
1442758656-1442775039
1442791424-1442795519
1447010304-1447018495
1466122240-1466130431
1466826752-1466892287
1474428928-1474461695
1475772416-1475776511
1475776512-1475780607
1475780608-1475788799
1485275136-1485283327
1494401024-1494409215
1500446720-1500463103
1505714176-1505722367
1506344960-1506377727
1506799616-1506801663
1507684352-1507688447
1509445632-1509449727
1509851136-1509867519
1532682240-1532690431
1533607936-1533640703
1533659136-1533661183
1534803968-1534808063
1535578112-1535582207
1535594496-1535598591
1536032768-1536036863
1539055616-1539063807
1539186688-1539194879
1539391488-1539392511
1539460096-1539460607
1539726080-1539726335
1539742720-1539742975
1539790336-1539790591
1539800576-1539800831
1539850240-1539851263
1539902464-1539903487
1540047872-1540048895
1540112384-1540113407
1540631808-1540632063
1540636416-1540636671
1540670976-1540671231
1540712704-1540712959
1540712960-1540713215
1540882688-1540882943
1540882944-1540883199
1540901120-1540901375
1541026816-1541027839
1541155584-1541155839
1541225984-1541226495
1541383424-1541383679
1541401600-1541401855
1541406720-1541407231
1541409792-1541410303
1541469696-1541470207
1541545984-1541546495
1541629184-1541629439
1541669888-1541670911
1541827072-1541827327
1541882880-1541883135
1542051328-1542051839
1542241280-1542241535
1542269440-1542269695
1542283776-1542284287
1542518272-1542518783
1542537216-1542538239
1542832640-1542832895
1542932480-1542932735
1546715136-1546731519
1547653120-1547657215
1547661312-1547665407
1559248896-1559257087
1571930112-1571946495
1579057152-1579089919
1583611904-1583615999
1583734784-1583738879
1583820800-1583824895
1586397184-1586399231
1598291968-1598324735
1602363392-1602365439
1602449408-1602451455
1607937024-1607938047
1833525248-1833529343
1835925504-1835933695
1841680384-1841682431
1842182144-1842184191
1843773440-1843781631
2292776960-2292809727
2374500352-2374502399
2667526144-2667528191
2677276672-2677342207
2870590976-2870591231
2870598144-2870598655
2956468224-2956470271
2956535808-2956537855
2957189120-2957193215
2959585280-2959589375
2959589376-2959591423
2959749120-2959753215
2959761408-2959763455
2959777792-2959781887
2959781888-2959783935
2987397120-2987401215
3000302592-3000303103
3000315904-3000317951
3002671104-3002673151
3104304128-3104305151
3104324608-3104325631
3104675840-3104676863
3105333248-3105334271
3105577984-3105579007
3105827840-3105828863
3106019328-3106020351
3106030592-3106031615
3106096128-3106097151
3106289664-3106290687
3158355968-3158358015
3160150016-3160152063
3160164352-3160166399
3161489408-3161505791
3231868928-3231869951
3238037504-3238038527
3238038528-3238039039
3238623232-3238623487
3239790592-3239791103
3240113152-3240113407
3240698112-3240698367
3240701184-3240701439
3240739584-3240739839
3240741888-3240742143
3241077760-3241078015
3242475520-3242483711
3243554816-3243555071
3244923648-3244923903
3244926464-3244926719
3244945408-3244945663
3245088000-3245088255
3245117440-3245118463
3245127936-3245128191
3245167872-3245168127
3245200128-3245200383
3245213696-3245214207
3245253632-3245254143
3245339648-3245340671
3247066368-3247066623
3247094784-3247095807
3248804352-3248804863
3249081344-3249081855
3249120768-3249121279
3249127936-3249128447
3249706496-3249707007
3249713152-3249715199
3249717248-3249718271
3249727488-3249727999
3251143424-3251143679
3251161344-3251161599
3251167232-3251167487
3251192320-3251192831
3253654528-3253657599
3254781952-3254782207
3254792192-3254792447
3254792448-3254792703
3254792704-3254792959
3254832896-3254833151
3254841856-3254842111
3255304448-3255305215
3255305472-3255306495
3255306496-3255306751
3255306752-3255307263
3255307264-3255307775
3255308288-3255311359
3255312384-3255315711
3255413248-3255413503
3255414528-3255414783
3255424000-3255425023
3256082432-3256090623
3258083584-3258083839
3261675520-3261675775
3263033344-3263033855
3263088384-3263088639
3264190464-3264190975
3264749568-3264750079
3264827136-3264827391
3264841472-3264841727
3264850688-3264850943
3267052544-3267053567
3267060736-3267061759
3268741376-3268741631
3268764672-3268765183
3271712768-3271720959
3271790592-3271791615
3271910912-3271911423
3272110848-3272111103
3272264704-3272264959
3272267776-3272268031
3272441856-3272474623
3272900096-3272900607
3273266176-3273266687
3273398784-3273399295
3273878272-3273878527
3274396160-3274396671
3275552768-3275553791
3275653120-3275661311
3275898880-3275899135
3276101632-3276102655
3279036416-3279044607
3279552512-3279560703
3280129280-3280129535
3282086400-3282086911
3283247104-3283247615
3283496704-3283496959
3284088320-3284088831
3285425152-3285426175
3285753856-3285762047
3285773312-3285773567
3286424064-3286424319
3286926080-3286926335
3286929408-3286929663
3287580672-3287584767
3287584768-3287588863
3287663104-3287663359
3287736832-3287737343
3287826432-3287826687
3561398272-3561406463
3562889216-3562897407
3566092288-3566108671
3574972416-3574988799
3580772352-3580780543
3585032192-3585040383
3585040384-3585048575
3585368064-3585376255
3585523712-3585531903
3642073088-3642077183
3642245120-3642249215
3642503168-3642507263
3645206528-3645210623
3650211840-3650215935
3653447680-3653451775
3653689344-3653693439
3653722112-3653726207
3653726208-3653730303
