691617792-691621887
691633152-691634175
692905984-692908031
692988928-692989951
692997120-692998143
693038080-693039103
693043200-693044223
693046272-693047295
693050368-693051391
693057536-693058559
693071872-693072895
693076992-693078015
693091328-693092351
693485568-693493759
700325888-700334079
700442624-700444671
702287872-702291967
702386176-702390271
3288616960-3288617215
3290128384-3290136575
3290243072-3290245119
3291176960-3291185151
3291203328-3291203583
3291262976-3291267071
3301507328-3301507583
3301511168-3301513215
3302776832-3302785023
3302955520-3302955775
3315326976-3315331071
3315452928-3315453951
3318988800-3319005183
3319166976-3319169023
3319652352-3319660543
3320304640-3320305663
