2197842944-2197843967
2197859328-2197860351
2202593280-2202594303
2202594304-2202595327
2204376064-2204377087
2204910592-2204911615
2204946432-2204947455
2208380928-2208381951
2208417792-2208418815
2212306944-2212307967
2212340736-2212341759
2231321600-2231322623
2231364608-2231365631
2315258880-2315259903
2315286528-2315287551
2317679616-2317680639
2454913024-2454978559
2459631616-2459697151
2554986496-2555052031
2559246336-2559311871
2561409024-2561671167
2565210112-2565275647
2565292032-2565308415
2623602688-2623668223
2661941248-2662006783
2667249664-2667315199
2701172736-2701176831
2701178880-2701180927
2702770176-2702835711
2709716992-2709782527
2716729344-2716794879
2750873600-2750939135
2751070208-2751135743
2756509696-2756575231
2757754880-2757820415
2757885952-2757951487
2780168192-2780233727
2780233728-2780299263
2789933056-2789998591
2792226816-2792292351
2803630080-2803695615
2833711104-2833776639
2853306368-2853371903
3003122176-3003122431
3003122432-3003122687
3003123712-3003123967
3003125760-3003126783
3003154432-3003154687
3003160576-3003161599
3003252736-3003383807
3003383808-3003449343
3003645952-3003777023
3006791680-3006922751
3007070208-3007078399
3007122432-3007123455
3007143936-3007148031
3007152128-3007184895
3007307776-3007309823
3007309824-3007310847
3007312896-3007313919
3039412224-3039420415
3039428608-3039494143
3039494144-3039559679
3041394688-3041656831
3044206592-3044208639
3044450304-3044454399
3047161856-3047292927
3047292928-3047423999
3047948288-3048079359
3048332288-3048333311
3049127936-3049193471
3049783296-3050045439
3050569728-3050635263
3050700800-3050831871
3051450368-3051454463
3051457536-3051458559
3051458560-3051460607
3051487232-3051552767
3120757760-3120758783
3120949248-3120951295
3121152000-3121184767
3121184768-3121217535
3121217536-3121250303
3121250304-3121283071
3121283072-3121348607
3121872896-3121938431
3121938432-3122003967
3122790400-3122921471
3122921472-3122987007
3122987008-3123052543
3123183616-3123216383
3123216384-3123249151
3123249152-3123314687
3124785152-3124787199
3124787200-3124788223
3124840448-3124842495
3124854784-3124887551
3124953088-3125018623
3125673984-3125805055
3127345152-3127377919
3127377920-3127508991
3127508992-3127640063
3130261504-3130277887
3130314752-3130315775
3130785792-3130818559
3130818560-3130851327
3131834368-3132096511
3132313600-3132317695
3133074432-3133075455
3187824640-3187826687
3187910656-3187912703
3187912704-3187914751
3187953664-3187955711
3187957760-3187961855
3187982336-3187990527
3187990528-3187998719
3188006912-3188015103
3188094976-3188097023
3188211712-3188215807
3188215808-3188219903
3188219904-3188223999
3188224000-3188228095
3188275200-3188277247
3188539392-3188543487
3188552704-3188553727
3188555776-3188559871
3188559872-3188563967
3188563968-3188572159
3188600832-3188604927
3188981760-3189047295
3189047296-3189112831
3189112832-3189145599
3189145600-3189178367
3190554624-3190620159
3190620160-3190685695
3190685696-3190816767
3191209984-3191242751
3191242752-3191275519
3193044992-3193061375
3193061376-3193077759
3193077760-3193110527
3193634816-3193700351
3193823232-3193827327
3193896960-3193905151
3193905152-3193913343
3193913344-3193929727
3193962496-3193970687
3193970688-3193978879
3193978880-3193987071
3194071040-3194072063
3194142720-3194159103
3194181632-3194182655
3194224640-3194290175
3194290176-3194322943
3194322944-3194355711
3194413056-3194417151
3194417152-3194421247
3194458112-3194462207
3194728448-3194729471
3194740736-3194742783
3194781696-3194789887
3194789888-3194798079
3194904576-3194908671
3194910720-3194912767
3194912768-3194920959
3194920960-3194925055
3195023360-3195024383
3195076608-3195084799
3195139072-3195140095
3195150336-3195158527
3195206656-3195207679
3195576320-3195580415
3195600896-3195609087
3195609088-3195617279
3195617280-3195633663
3195748352-3195752447
3195803648-3195804671
3197566976-3197599743
3197730816-3197763583
3198156800-3198287871
3198287872-3198418943
3198418944-3198451711
3198451712-3198484479
3198910464-3198926847
3199516672-3199533055
3200516096-3200532479
3200532480-3200548863
3200548864-3200565247
3200569344-3200573439
3201302528-3201368063
3201368064-3201433599
3201499136-3201515519
3201540096-3201544191
3201562624-3201563647
3201761280-3201794047
3201794048-3201826815
3201925120-3201957887
3210739712-3210805247
3210921984-3210924031
3211067392-3211132927
3211141120-3211142143
3211788288-3212050431
3212050432-3212312575
3212574720-3212836863
3226474496-3226474751
3231282944-3231283199
3234569728-3234569983
3234828800-3234829055
3236392448-3236392703
3236400128-3236400383
3237297152-3237297407
3237684992-3237685247
3322023936-3322028031
3323394560-3323395071
3324583936-3324585983
3324585984-3324587007
3324587008-3324587519
3324587520-3324587775
3345442304-3345442559
3355460096-3355460351
3355464192-3355464447
3355470848-3355471103
3355472640-3355472895
3355472896-3355473407
3355473920-3355474175
3355474176-3355474431
3355474432-3355474943
3355474944-3355475199
3355479040-3355479551
3355480064-3355480575
3355480576-3355480831
3355480832-3355481087
3355481088-3355481599
3355481600-3355482111
3355482112-3355482367
3355482368-3355482623
3355482624-3355482879
3355482880-3355483135
3355483136-3355483391
3355483392-3355483647
3355483648-3355483903
3355483904-3355484159
3355484160-3355485183
3355487744-3355487999
3355512832-3355516927
3355538176-3355538431
3355539456-3355540479
3355541504-3355541759
3355541760-3355542015
3355542016-3355542271
3355542272-3355542527
3355542528-3355543551
3355543552-3355544575
3355544576-3355545599
3355553280-3355553535
3355574272-3355576319
3355578368-3355580415
3355580416-3355581439
3355581440-3355582463
3355592704-3355594751
3355594752-3355596799
3355596800-3355597311
3355597312-3355597567
3355597568-3355597823
3355597824-3355598335
3355598336-3355598847
3355598848-3355599359
3355599360-3355599615
3355599616-3355599871
3355600896-3355602943
3355602944-3355604991
3355623424-3355631615
3355631616-3355639807
3355693056-3355695103
3355841024-3355841279
3355844864-3355845119
3355849984-3355850239
3355850240-3355850495
3355852800-3355853055
3355853056-3355853311
3355853312-3355853823
3355853824-3355854847
3355854848-3355855871
3355855872-3355856383
3355856384-3355856639
3355860992-3355865087
3355865088-3355869183
3355902976-3355903999
3355906048-3355910143
3356033792-3356034047
3356049408-3356049663
3356051712-3356051967
3356053248-3356053503
3356053504-3356053759
3356053760-3356054015
3356057856-3356058111
3356058112-3356058623
3356058624-3356058879
3356058880-3356059135
3356060672-3356061695
3356064256-3356064511
3356065792-3356066047
3356069120-3356069375
3356069376-3356069631
3356070144-3356070399
3356070400-3356070655
3356071424-3356071679
3356071680-3356071935
3356071936-3356072191
3356072192-3356072447
3356078336-3356078591
3356078592-3356079103
3356079104-3356079359
3356082432-3356082687
3356082944-3356083199
3356083200-3356083711
3356083712-3356083967
3356084480-3356084735
3356085248-3356085503
3356085504-3356085759
3356088064-3356088319
3356090624-3356090879
3356091392-3356091647
3356091904-3356092415
3356092416-3356092927
3356093952-3356094463
3356094464-3356094975
3356096256-3356096511
3356098560-3356099583
3356100608-3356101631
3356101632-3356102143
3356102144-3356102399
3356102656-3356104703
3356104704-3356105727
3356141312-3356141567
3356141568-3356142591
3356142592-3356142847
3356145152-3356145407
3356145664-3356145919
3356147200-3356147455
3356148480-3356148735
3356151808-3356152063
3356152576-3356152831
3356154880-3356155903
3356155904-3356156415
3356156416-3356156671
3356157952-3356158207
3356158464-3356158719
3356158976-3356159487
3356159488-3356159743
3356160512-3356160767
3356162816-3356163071
3356163072-3356163583
3356163840-3356164095
3356180480-3356188671
3356188672-3356190719
3356233728-3356235775
3356235776-3356236799
3356236800-3356237823
3356262656-3356262911
3356262912-3356263167
3356263424-3356263679
3356265472-3356265983
3356265984-3356266239
3356266240-3356266495
3356266496-3356267007
3356267264-3356267519
3356267520-3356268543
3356268544-3356268799
3356273408-3356273663
3356279296-3356279807
3356295168-3356297215
3356360704-3356362751
3356377088-3356377343
3356377344-3356377599
3356377600-3356377855
3356377856-3356378111
3356378112-3356379135
3356379136-3356379391
3356379392-3356379647
3356380160-3356380671
3356380672-3356380927
3356381184-3356381439
3356381696-3356381951
3356382208-3356383231
3356383232-3356384255
3356384256-3356384511
3356384512-3356384767
3356384768-3356385023
3356385024-3356385279
3356385280-3356385791
3356385792-3356386047
3356386048-3356386303
3356386304-3356387327
3356387328-3356388351
3356388352-3356388863
3356388864-3356389119
3356389120-3356389375
3356389888-3356390399
3356390656-3356390911
3356390912-3356391167
3356393472-3356409855
3356409856-3356426239
3356520448-3356521471
3356884992-3356950527
3357019136-3357020159
3357073408-3357077503
3357212672-3357278207
3357278208-3357286399
3357286400-3357290495
3357290496-3357294591
3357294592-3357310975
3357310976-3357315071
3357315072-3357319167
3357319168-3357327359
3357327360-3357331455
3357331456-3357333503
3357333504-3357335551
3357335552-3357343743
3357343744-3357351935
3357351936-3357360127
3357360128-3357368319
3357376512-3357384703
3357384704-3357388799
3357388800-3357392895
3357392896-3357401087
3357401088-3357403135
3357458432-3357474815
3357483008-3357491199
3357581312-3357589503
3357776896-3357777919
3358236672-3358240767
3358240768-3358244863
3358658560-3358660607
3358728192-3358736383
3358744576-3358752767
3358756864-3358760959
3358982144-3359047679
3359096832-3359100927
3359100928-3359105023
3359586304-3359588351
3359596544-3359598591
3359899648-3359916031
3360145408-3360149503
3360149504-3360153599
3360161792-3360194559
3360194560-3360210943
3360210944-3360219135
3360219136-3360227327
3360256000-3360258047
3360258048-3360260095
3360280576-3360282623
3360284672-3360292863
3360292864-3360301055
3360301056-3360309247
3360309248-3360313343
3360313344-3360317439
3360317440-3360325631
3360333824-3360337919
3360337920-3360342015
3360358400-3360366591
3360536576-3360537599
3360788480-3360790527
3360882688-3360948223
3361062912-3361067007
3361067008-3361071103
3361079296-3361087487
3361087488-3361091583
3361091584-3361095679
3361095680-3361112063
3361112064-3361128447
3361128448-3361144831
3361284096-3361288191
3361288192-3361292287
3361292288-3361296383
3361382400-3361386495
3361386496-3361390591
3361390592-3361394687
3361394688-3361398783
3361398784-3361402879
3361402880-3361406975
3361406976-3361415167
3361417216-3361419263
3361716224-3361717247
3362258944-3362275327
3362275328-3362291711
3362291712-3362324479
3362428928-3362430975
3362471936-3362476031
3362717696-3362734079
3362734080-3362742271
3362742272-3362750463
3362750464-3362783231
3362783232-3362791423
3362791424-3362799615
3362799616-3362815999
3362840576-3362844671
3362844672-3362848767
3362848768-3362852863
3362852864-3362856959
3362856960-3362861055
3362861056-3362865151
3362865152-3362869247
3362869248-3362873343
3362873344-3362881535
3362881536-3362889727
3362889728-3362897919
3362930688-3362934783
3362936832-3362938879
3363026944-3363027199
3363299328-3363303423
3363303424-3363307519
3363307520-3363340287
3363340288-3363373055
3363577856-3363581951
3363581952-3363586047
3363708928-3363713023
3363713280-3363713535
3363713536-3363714047
3363717120-3363721215
3363721216-3363725311
3363725312-3363729407
3363729408-3363733503
3380815360-3380815871
3381946368-3381947391
3381974016-3381975039
3382057984-3382059007
3382683648-3382685695
3384410112-3384475647
3384475648-3384508415
3384508416-3384541183
3384541184-3384672255
3386245120-3386277887
3386277888-3386310655
3386310656-3386376191
3386503168-3386504191
3386505216-3386507263
3386540032-3386548223
3386605568-3386613759
3386632192-3386634239
3386645248-3386645503
3386662912-3386667007
3386667008-3386671103
3386695680-3386699775
3386699776-3386703871
3386732544-3386734591
3386734848-3386735103
3386735360-3386735615
3386753024-3386757119
3386757120-3386761215
3386802176-3386818559
3386818560-3386834943
3386834944-3386867711
3386867712-3386900479
3387686912-3387703295
3387703296-3387719679
3387719680-3387736063
3387867136-3387875327
3387875328-3387883519
3387883520-3387916287
3387916288-3387949055
3388014592-3388047359
3388047360-3388080127
3388342272-3388358655
3388358656-3388375039
3388375040-3388391423
3388391424-3388407807
3428296960-3428297215
3489185792-3489193983
3634053120-3634061311
