521547776-521551871
522993664-522997759
531339264-531341311
534652928-534654975
622477312-622479359
622481408-622483455
629895168-629897215
773054464-773056511
778240000-778305535
783775744-783777791
788275200-788279295
788500480-788502527
1307709440-1307713535
1308055552-1308057599
1331851264-1331853311
1332346880-1332412415
1336619008-1336621055
1347305472-1347309567
1347461120-1347465215
1348096000-1348100095
1348169728-1348173823
1360709632-1360711679
1383219200-1383227391
1410613248-1410621439
1539006464-1539014655
1540524032-1540525055
1541594112-1541594367
1541864960-1541865471
1547440128-1547444223
1570750464-1570752511
1585278976-1585281023
1600880640-1600913407
1833238528-1833240575
1833279488-1833281535
1835565056-1835573247
1844111360-1844113407
1844191232-1844195327
2181044224-2181046271
2248155136-2248163327
2366162944-2366164991
2449477632-2449479679
2995050496-2995052543
3104386048-3104387071
3104974848-3104975871
3105787904-3105788927
3105887232-3105888255
3105955840-3105956863
3106324480-3106325503
3164919808-3164921855
3254649088-3254649599
3254649600-3254649855
3254883584-3254883839
3587121152-3587129343
3642068992-3642073087
3642290176-3642294271
3645472768-3645476863
