2204404736-2204405759
2231357440-2231358463
2834497536-2834563071
3003124736-3003125247
3003449344-3003514879
3006464000-3006480383
3049107456-3049111551
3051454464-3051456511
3122675712-3122692095
3122722816-3122724863
3188031488-3188039679
3191144448-3191152639
3191152640-3191156735
3191169024-3191177215
3191177216-3191193599
3191406592-3191439359
3191734272-3191799807
3193307136-3193372671
3193372672-3193438207
3194165248-3194167295
3194167296-3194175487
3195535360-3195539455
3195539456-3195543551
3195711488-3195712511
3197501440-3197534207
3197534208-3197566975
3197612032-3197616127
3355489280-3355489535
3356105728-3356106751
3356172032-3356172287
3356273664-3356274175
3356274176-3356274431
3356336128-3356344319
3357515776-3357519871
3357519872-3357523967
3360253952-3360255999
3361013760-3361017855
3361017856-3361021951
3361296384-3361298431
3362447360-3362451455
3380816384-3380816639
3380836864-3380837375
3382072320-3382073343
3388407808-3388440575
3388440576-3388448767
3388448768-3388456959
3388456960-3388473343
