2197815296-2197816319
2204420096-2204421119
2231099392-2231107583
2317634560-2317635583
2702606336-2702639103
2704801792-2704867327
2710175744-2710241279
2792488960-2792554495
2812084224-2812149759
3003129344-3003129599
3006922752-3006988287
3006988288-3007053823
3007082496-3007086591
3044163584-3044171775
3044171776-3044179967
3044188160-3044196351
3044245504-3044278271
3048308736-3048325119
3049029632-3049046015
3051552768-3051618303
3120602112-3120603135
3120693248-3120709631
3120709632-3120726015
3122331648-3122348031
3122348032-3122364415
3128541184-3128557567
3187734528-3187736575
3187914752-3187916799
3188408320-3188412415
3188412416-3188416511
3188604928-3188621311
3191091200-3191093247
3194182656-3194183679
3194368000-3194370047
3194437632-3194441727
3194486784-3194494975
3194679296-3194683391
3194691584-3194695679
3194695680-3194699775
3194871808-3194879999
3195763712-3195764735
3196125184-3196157951
3196157952-3196190719
3198926848-3198943231
3199467520-3199500287
3199533056-3199549439
3199860736-3199877119
3199877120-3199893503
3199893504-3199909887
3199909888-3199926271
3201556480-3201560575
3235856384-3235872767
3237312768-3237313023
3355942912-3355947007
3356075264-3356075519
3356075520-3356076031
3356076032-3356076287
3356293120-3356295167
3356334080-3356336127
3359260672-3359264767
3359264768-3359268863
3359285248-3359289343
3359289344-3359293439
3360116736-3360118783
3360251904-3360253951
3360399360-3360403455
3361046528-3361050623
3361050624-3361052671
3361144832-3361177599
3361177600-3361210367
3361378304-3361380351
3362357248-3362365439
3362365440-3362373631
3362373632-3362381823
3362452480-3362452991
3362516992-3362519039
3362664448-3362668543
3363291136-3363295231
3363295232-3363299327
3380816128-3380816383
3380817152-3380817407
3382091776-3382099967
3386785792-3386793983
3386793984-3386802175
