461078528-461094911
1728164864-1728165887
1744102400-1744103423
1847810048-1847812095
1897152512-1897160703
2011906048-2011914239
2011914240-2011916287
2087458816-2087460863
2423783424-2423848959
3075571712-3075575807
3393060864-3393062911
3393091072-3393091583
3393091584-3393092607
3393092608-3393093631
3397510144-3397511167
3398021120-3398023167
3398897664-3398901759
3400146944-3400151039
3411278592-3411278847
3413586688-3413586943
3419073280-3419073535
3523674112-3523682303
