691798016-691863551
691994624-692011007
692609024-692617215
692842496-692846591
692912128-692914175
692948992-692951039
693006336-693007359
700412928-700413951
702001152-702005247
702021632-702029823
702038016-702046207
702150656-702152703
702418944-702420991
702476288-702477311
702510080-702511103
3289123840-3289124863
3291201792-3291202047
3291353600-3291354111
3291380736-3291381759
3291398144-3291406335
3302949376-3302949631
3315499008-3315515391
3319005184-3319136255
3319529472-3319537663
3319578624-3319595007
3320312832-3320313855
