87623680-87625727
521994240-522002431
522819584-522821631
529002496-529006591
532295680-532297727
532740096-532742143
630161408-630163455
635076608-635092991
786616320-786618367
787171328-787173375
788250624-788258815
1298085888-1298087935
1307246592-1307254783
1346940928-1346945023
1360269312-1360273407
1364770816-1364774911
1433468928-1433477119
1433649152-1433657343
1508753408-1508769791
1539325952-1539326975
1540173824-1540174847
1540299776-1540300287
1540745472-1540745727
1541674496-1541675007
1541761024-1541761535
1541791744-1541792255
1547583488-1547587583
1559584768-1559592959
1586479104-1586481151
1599553536-1599561727
1607988224-1607989247
1833426944-1833428991
1841930240-1841938431
2662662144-2662670335
2662694912-2662727679
2960908288-2960916479
2961089536-2961090559
3000553472-3000555519
3000608768-3000610815
3105126400-3105127423
3105732608-3105733631
3244961792-3244962815
3264750592-3264751103
3266342656-3266342911
3274088448-3274096639
3275142144-3275142655
3279089664-3279093759
3285773568-3285773823
3556958208-3556966399
3559546880-3559555071
3563126784-3563134975
3564134400-3564142591
3572563968-3572572159
3583082496-3583090687
3642560512-3642564607
