87912448-87914495
89387008-89391103
92690432-92692479
93693952-93695999
93753344-93755391
94316544-94318591
95625216-95633407
95633408-95635455
520564736-520566783
520951808-520953855
520962048-520978431
531234816-531236863
532291584-532293631
532797440-532799487
533233664-533250047
534308864-534310911
534376448-534378495
620756992-620759039
621973504-621975551
622026752-622028799
623775744-623777791
628021248-628023295
629194752-629196799
634073088-634075135
634109952-634111999
635748352-635764735
772210688-772276223
772874240-772876287
773050368-773052415
773226496-773230591
773931008-773939199
775127040-775159807
780730368-780795903
783681536-783683583
787861504-787863551
788502528-788504575
1040777216-1040842751
1041301504-1041367039
1042817024-1042825215
1045274624-1045282815
1055334400-1055342591
1296236544-1296269311
1296582656-1296584703
1296683008-1296685055
1296785408-1296787455
1296822272-1296824319
1297553408-1297555455
1298112512-1298114559
1298907136-1298923519
1309671424-1309933567
1310199808-1310201855
1310708736-1310709247
1317502976-1317535743
1317634048-1317650431
1318027264-1318043647
1318633472-1318641663
1318641664-1318649855
1318699008-1318707199
1319002112-1319010303
1331757056-1331822591
1333592064-1333624831
1334607872-1334611967
1334628352-1334632447
1334820864-1334824959
1336602624-1336604671
1336625152-1336627199
1348272128-1348276223
1348276224-1348280319
1357447168-1357479935
1358557184-1358561279
1360130048-1360134143
1360367616-1360371711
1360590848-1360592895
1361039360-1361041407
1385021440-1385037823
1388544000-1388552191
1388740608-1388748799
1397096448-1397227519
1401432064-1401434111
1401464832-1401466879
1401554944-1401556991
1401765888-1401782271
1402175488-1402191871
1406271488-1406337023
1406976000-1406984191
1410506752-1410514943
1411901440-1411903487
1412685824-1412694015
1422589952-1422655487
1432027136-1432035327
1434877952-1434910719
1436487680-1436489727
1445462016-1445986303
1461714944-1462763519
1472200704-1472266239
1472593920-1472659455
1474822144-1474887679
1475235840-1475237887
1476182016-1476190207
1481728000-1481736191
1482137600-1482145791
1486297088-1486299135
1486311424-1486313471
1494237184-1494245375
1494368256-1494376447
1494433792-1494441983
1494627072-1494627327
1495052288-1495054335
1495246848-1495248895
1499725824-1499856895
1500153856-1500155903
1501298688-1501560831
1502969856-1502986239
1505239040-1505247231
1505329152-1505337343
1505697792-1505705983
1506582528-1506590719
1506590720-1506607103
1506752512-1506754559
1506795520-1506797567
1508524032-1508540415
1533431808-1533433855
1533476864-1533478911
1534844928-1534849023
1536057344-1536061439
1536090112-1536094207
1539129344-1539131391
1539423232-1539424255
1539708928-1539709183
1539719168-1539719423
1539787264-1539787519
1539822848-1539823103
1540426240-1540426495
1540442624-1540442879
1540450816-1540451071
1540548608-1540549631
1540579328-1540580351
1540642816-1540643071
1540698368-1540698623
1540704512-1540704767
1540883968-1540884223
1540942848-1540943103
1540944128-1540944383
1540970496-1540971007
1541156096-1541156351
1541201920-1541202175
1541343488-1541343743
1541363456-1541363711
1541675008-1541675519
1541783552-1541783807
1542152192-1542153215
1542427392-1542427647
1546104832-1546108927
1546895360-1546911743
1547485184-1547489279
1547550720-1547554815
1559986176-1560018943
1566175232-1566179327
1566312448-1566314495
1566470144-1566472191
1566527488-1566529535
1567293440-1567358975
1571727360-1571729407
1572835328-1572837375
1583792128-1583796223
1590065152-1590067199
1590157312-1590159359
1592156160-1592160255
1593257984-1593260031
1596719104-1596850175
1599324160-1599340543
1602273280-1602275327
1603170304-1603174399
1833357312-1833359359
1833697280-1833959423
1835687936-1835696127
1836908544-1836924927
1844076544-1844078591
1845428224-1845493759
2248167424-2248169471
2262106112-2262171647
2262958080-2263023615
2294874112-2294939647
2295201792-2295267327
2301296640-2301362175
2310995968-2311028735
2311028736-2311045119
2311045120-2311053055
2311053056-2311053311
2311053312-2311061503
2362114048-2362179583
2372497408-2372499455
2374524928-2374529023
2402222080-2402287615
2414804992-2414870527
2465671168-2465673215
2482765824-2482831359
2509832192-2509897727
2510094336-2510159871
2646474752-2646540287
2676359168-2676424703
2684747776-2684813311
2954903552-2954919935
2955018240-2955083775
2956253184-2956255231
2956787712-2956820479
2960979456-2960979711
2961057024-2961057279
2987442176-2987446271
2987675648-2987677695
2997321728-2997354495
3000528896-3000530943
3001810944-3001815039
3002757120-3002759167
3103932416-3103933439
3104096256-3104097279
3104174080-3104175103
3104187392-3104188415
3104290816-3104291839
3104337920-3104338943
3104358400-3104359423
3104522240-3104523263
3104591872-3104592895
3104611328-3104612351
3105020928-3105021951
3105266688-3105267711
3105303552-3105304575
3105417216-3105418239
3105670144-3105671167
3105841152-3105842175
3105905664-3105906687
3105921024-3105922047
3105946624-3105947647
3106039808-3106040831
3106040832-3106041855
3106043904-3106044927
3106061312-3106062335
3106290688-3106291711
3106382848-3106383871
3106422784-3106423807
3160211456-3160213503
3163357184-3163389951
3223572224-3223572479
3225617152-3225617407
3225673472-3225673727
3227278848-3227279103
3228080640-3228080895
3228265984-3228266239
3228509952-3228510207
3229276160-3229276415
3229276416-3229281023
3230130432-3230130687
3231673600-3231673855
3231675904-3231676159
3231897600-3231898623
3233578752-3233579007
3234015744-3234015999
3238068224-3238133759
3239772416-3239772671
3240251392-3240252415
3240372992-3240373247
3240436736-3240437759
3243514368-3243514623
3244261376-3244277759
3244853248-3244853503
3244873472-3244873727
3244921088-3244921343
3244948736-3244948991
3245298176-3245298431
3245320960-3245321215
3245867008-3245932543
3247072256-3247072511
3247075072-3247075327
3249668352-3249676031
3249676032-3249676287
3249676544-3249676799
3249677312-3249678335
3249678336-3249678591
3249678592-3249678847
3249679360-3249681151
3249681152-3249681407
3249681664-3249681919
3249681920-3249682943
3249682944-3249683455
3249684480-3249692671
3249692672-3249696767
3249696768-3249697279
3249697280-3249697535
3249697536-3249697791
3249697792-3249698047
3250405888-3250406399
3251149568-3251149823
3251339264-3251347455
3252342592-3252342607
3253890816-3253891071
3254799360-3254800383
3254830080-3254830335
3254837760-3254838015
3254841600-3254841855
3259352576-3259353087
3259823872-3259824127
3260548096-3260548351
3260608512-3260609023
3261759488-3261767679
3262971904-3262975999
3262976000-3262980095
3262980096-3262988287
3262988288-3263004671
3263004672-3263012863
3263012864-3263021055
3263021056-3263029247
3264014848-3264015103
3264315392-3264317439
3264564224-3264565247
3264832000-3264832255
3264847168-3264847199
3265602816-3265603071
3265634304-3265642495
3265905664-3265905919
3268746496-3268746751
3271739904-3271740415
3271928832-3271929087
3272024064-3272032255
3273872896-3273873151
3274340352-3274340863
3274414848-3274415103
3275510336-3275510399
3275531776-3275532287
3275901696-3275901951
3277685760-3277686271
3277831680-3277831935
3277831936-3277832191
3282195456-3282196479
3283976192-3283976703
3284081664-3284082175
3285442560-3285443583
3285868544-3285876735
3286133760-3286134783
3287636480-3287636991
3287830528-3287830783
3437752320-3437752575
3437756160-3437756415
3556941824-3556950015
3557892096-3557900287
3561938944-3561947135
3562285056-3562287103
3564666880-3564675071
3565035520-3565043711
3565240320-3565248511
3566436352-3566469119
3578732544-3578740735
3579740160-3579772927
3584000000-3584008191
3584614400-3584622591
3586031616-3586039807
3586121728-3586129919
3586670592-3586686975
3586818048-3586834431
3588849664-3588857855
3590242304-3590258687
3645079552-3645083647
3645517824-3645521919
3645571072-3645575167
3645767680-3645771775
3648167936-3648172031
3648221184-3648225279
3652018176-3652022271
3652046848-3652050943
