17498112-17563647
17825792-18087935
23068672-24117247
28311552-28442623
29949952-30015487
30408704-31457279
31457280-33554431
234889216-234897407
234897408-234913791
235143168-235405311
236978176-239075327
239075328-241172479
243302400-243335167
243335168-243400703
243924992-243990527
247484416-247488511
248381440-248446975
453050368-453115903
455278592-455344127
459309056-459325439
459571200-459603967
459603968-459669503
459669504-459735039
460283904-460292095
460357632-460390399
460390400-460423167
460554240-460570623
460570624-460587007
460603392-460619775
460619776-460652543
460652544-460668927
460668928-460685311
460685312-460701695
460701696-460718079
460734464-460750847
460750848-460783615
460783616-460816383
460816384-460849151
460849152-460865535
461012992-461045759
461144064-461176831
461176832-461209599
461242368-461258751
463470592-464519167
464519168-465043455
468189184-468713471
469712896-469721087
469721088-469729279
606470144-606601215
654573568-654835711
655360000-656408575
661651456-662700031
705167360-705691647
705691648-706740223
706740224-707788799
710017024-710082559
822149120-822214655
822607872-822870015
823132160-824180735
825360384-825361407
825364480-825368575
825368576-825376767
825393152-825409535
825753600-826277887
830521344-830529535
831389696-831455231
831455232-831487999
831488000-831504383
831504384-831512575
832569344-833617919
837566464-837582847
837582848-837599231
837697536-837713919
837713920-837746687
837779456-837795839
838205440-838221823
838221824-838238207
838270976-838336511
838729728-838795263
974979072-975044607
977354752-977371135
977797120-978321407
978788352-978796543
979763200-979894271
980942848-981467135
982171648-982188031
982253568-982515711
982581248-982614015
982695936-982712319
982757376-982759423
982777856-983039999
984875008-984940543
984940544-984956927
985137152-985202687
987758592-988807167
989855744-991952895
995540992-995557375
999686144-999751679
999800832-999817215
999849984-999866367
1002045440-1002176511
1019478016-1019609087
1023213568-1023229951
1023229952-1023238143
1023721472-1023729663
1023729664-1023737855
1023778816-1023787007
1025507328-1026031615
1026031616-1026293759
1026539520-1026555903
1028128768-1028390911
1028390912-1028521983
1028521984-1028653055
1028653056-1028915199
1028915200-1029046271
1029701632-1030750207
1039511552-1039515647
1039523840-1039532031
1039613952-1039630335
1039630336-1039638527
1039646720-1039654911
1039663104-1040187391
1694566400-1694568447
1694572544-1694580735
1697988608-1697996799
1698103296-1698136063
1699676160-1699741695
1701150720-1701183487
1707737088-1707802623
1709899776-1709965311
1710882816-1710948351
1728203776-1728204799
1728205824-1728206847
1728207872-1728208895
1728259072-1728260095
1728327680-1728328703
1728353280-1728354303
1728360448-1728361471
1728361472-1728362495
1728413696-1728414719
1728417792-1728418815
1728464896-1728465919
1728466944-1728467967
1728472064-1728473087
1728490496-1728491519
1728520192-1728521215
1728574464-1728575487
1728603136-1728604159
1728636416-1728636671
1728651264-1728652287
1728675840-1728676863
1728732160-1728733183
1728763904-1728764927
1728780288-1728781311
1728785408-1728786431
1728788480-1728789503
1728806912-1728807935
1728837632-1728838655
1728903168-1728904191
1728904192-1728905215
1728918528-1728919551
1728946176-1728947199
1729330176-1729331199
1729393664-1729394687
1729480704-1729481727
1729551360-1729552383
1729581056-1729582079
1729582080-1729583103
1729628160-1729629183
1729695744-1729696767
1729855488-1729856511
1729860608-1729861631
1729903616-1729904639
1729904640-1729905663
1730046976-1730047999
1730059264-1730060287
1730060288-1730061311
1730071552-1730072575
1730130944-1730131967
1743789056-1743790079
1743794176-1743795199
1743866880-1743867903
1743877120-1743878143
1743983616-1743984639
1744029696-1744030719
1744054272-1744055295
1744071680-1744072703
1744189440-1744190463
1744235520-1744236543
1744296960-1744297983
1744300032-1744301055
1744332800-1744333823
1744378880-1744379903
1744529408-1744530431
1744626688-1744627711
1744648192-1744649215
1779040256-1779073023
1784676352-1785200639
1794113536-1795162111
1845772288-1845788671
1845854208-1845886975
1846018048-1846542335
1847738368-1847754751
1847787520-1847803903
1847812096-1847820287
1847820288-1847853055
1848385536-1848393727
1848426496-1848442879
1848442880-1848475647
1848475648-1848508415
1848508416-1848639487
1849950208-1850212351
1850490880-1850507263
1850510336-1850511359
1851528192-1851529215
1851555840-1851588607
1851594752-1851596799
1851617280-1851621375
1851621376-1851637759
1856307200-1856315391
1856323584-1856339967
1856782336-1856798719
1860722688-1860726783
1866563584-1866579967
1866715136-1866719231
1866719232-1866727423
1868267520-1868271615
1868271616-1868275711
1868275712-1868283903
1868348416-1868349439
1870004224-1870036991
1873477632-1873510399
1876557824-1876688895
1876762624-1876764671
1883770880-1883774975
1883774976-1883783167
1883799552-1883832319
1884028928-1884159999
1885995008-1886126079
1886126080-1886191615
1886199808-1886207999
1886978048-1886986239
1887027200-1887043583
1887764480-1887797247
1887797248-1887813631
1887993856-1888026623
1888071680-1888073727
1888239616-1888255999
1888260096-1888262143
1888262144-1888264191
1888272384-1888288767
1888485376-1889533951
1889533952-1891631103
1891942400-1891950591
1892941824-1893007359
1893007360-1893015551
1893072896-1893138431
1893203968-1893728255
1896480768-1896497151
1897201664-1897209855
1897758720-1897775103
1897775104-1897779199
1897791488-1897807871
1897807872-1897824255
1899268096-1899270143
1899282432-1899290623
1899724800-1899741183
1899757568-1899823103
1899823104-1899831295
1899849728-1899850751
1904361472-1904369663
1904377856-1904410623
1904410624-1904476159
1908424704-1908441087
1908756480-1908760575
1908801536-1908867071
1908867072-1908899839
1909981184-1910112255
1914503168-1914535935
1914535936-1914552319
1914568704-1914576895
1914580992-1914585087
1914601472-1914634239
1914642432-1914650623
1914662912-1914667007
1916010496-1916141567
1917190144-1917321215
1919680512-1919713279
1919713280-1919729663
1919817728-1919819775
1919844352-1919877119
1919885312-1919889407
1919889408-1919893503
1919926272-1919942655
1921073152-1921089535
1921105920-1921122303
1921843200-1921851391
1921853440-1921855487
1921900544-1921908735
1925644288-1925660671
1925677056-1925709823
1925709824-1926234111
1929379840-1930428415
1930428416-1930952703
1931436032-1931444223
1932001280-1932132351
1933836288-1933901823
1933926400-1933934591
1934032896-1934098431
1934925824-1934927871
1934991360-1934999551
1935015936-1935081471
1935147008-1935671295
1937686528-1937702911
1938292736-1938817023
1938817024-1938882559
1938882560-1938948095
1939865600-1939898367
1939931136-1939996671
1940238336-1940240383
1941053440-1941057535
1941061632-1941069823
1941655552-1941657599
1948254208-1949302783
1950547968-1950580735
1950621696-1950629887
1950672896-1950674943
1951662080-1951727615
1952030720-1952038911
1952110592-1952112639
1952292864-1952301055
1952301056-1952317439
1954021376-1954545663
1958825984-1958828031
1958828032-1958830079
1959239680-1959241727
1959264256-1959395327
1960050688-1960058879
1962885120-1962901503
1963982848-1964113919
1964265472-1964269567
1964294144-1964310527
1966342144-1966407679
1966424064-1966432255
1966432256-1966440447
1966456832-1966473215
1966571520-1966587903
1966768128-1966772223
1970143232-1970274303
1970995200-1971060735
1981808640-1983905791
1984135168-1984151551
1985675264-1985691647
1985691648-1985699839
1985699840-1985708031
1985712128-1985716223
1986510848-1986519039
1986764800-1986768895
1988083712-1988100095
1988100096-1988362239
1988870144-1988886527
1991245824-1991311359
1993867264-1994391551
1995046912-1995177983
1997602816-1997611007
1997619200-1997635583
1997684736-1997701119
1998487552-1998503935
1998581760-1998583807
1998583808-1998585855
1999282176-1999290367
2000191488-2000224255
2000355328-2000371711
2000674816-2000683007
2000683008-2001207295
2001420288-2001436671
2001436672-2001453055
2001559552-2001567743
2001870848-2001879039
2006216704-2006220799
2006220800-2006228991
2006253568-2006319103
2007040000-2007048191
2009071616-2011168767
2011938816-2011942911
2011951104-2011953151
2015199232-2015203327
2016559104-2016575487
2016575488-2016583679
2018050048-2018115583
2022195200-2022211583
2022572032-2022637567
2022678528-2022686719
2022686720-2022703103
2030059520-2030075903
2030075904-2030108671
2030125056-2030141439
2033324032-2033328127
2033336320-2033352703
2033377280-2033385471
2033516544-2033582079
2033631232-2033647615
2033664000-2033680383
2033680384-2033696767
2034237440-2034499583
2035154944-2035220479
2035810304-2035875839
2036613120-2036629503
2036711424-2036715519
2036719616-2036727807
2038169600-2038300671
2038300672-2038366207
2038382592-2038398975
2038398976-2038415359
2038431744-2040528895
2040528896-2042626047
2043166720-2043183103
2046558208-2046689279
2046689280-2046705663
2046722048-2046754815
2046822400-2046824447
2046828544-2046836735
2048917504-2049966079
2050048000-2050064383
2053341184-2053373951
2053382144-2053390335
2053439488-2053505023
2055217152-2055225343
2055225344-2055229439
2055241728-2055258111
2055258112-2055274495
2055327744-2055329791
2055335936-2055337983
2055337984-2055340031
2056806400-2056814591
2056847360-2056912895
2059878400-2059894783
2059894784-2059927551
2060066816-2060075007
2060091392-2060124159
2060124160-2060189695
2063351808-2063368191
2063384576-2063392767
2063499264-2063532031
2063597568-2063601663
2065694720-2066743295
2070061056-2070069247
2070069248-2070077439
2070102016-2070118399
2070192128-2070200319
2070679552-2070683647
2070716416-2070724607
2070740992-2070806527
2070872064-2070937599
2072772608-2073034751
2076639232-2076671999
2076721152-2076737535
2077491200-2077753343
2078539776-2078670847
2079850496-2079916031
2079981568-2080112639
2080260096-2080268287
2080276480-2080309247
2080374784-2080505855
2080505856-2080571391
2080571392-2080636927
2080702464-2080767999
2082209792-2082242559
2082242560-2082258943
2083389440-2083422207
2083422208-2083454975
2083520512-2084569087
2084745216-2084749311
2084753408-2084757503
2085617664-2085683199
2087649280-2087714815
2089287680-2089549823
2089943040-2089959423
2090434560-2090467327
2093088768-2093154303
2093195264-2093203455
2093211648-2093219839
2093318144-2093334527
2093334528-2093342719
2093350912-2093383679
2093416448-2093432831
2093449216-2093481983
2094530560-2094596095
2094645248-2094653439
2096300032-2096332799
2097053696-2097086463
2097643520-2097659903
2097659904-2097676287
2099216384-2099232767
2100887552-2100953087
2101084160-2101100543
2101100544-2101116927
2101149696-2101182463
2101270528-2101272575
2105540608-2107637759
2108686336-2109734911
2110799872-2110816255
2110832640-2110840831
2110840832-2110849023
2110849024-2110865407
2110898176-2110914559
2112880640-2113404927
2113404928-2113667071
2113667072-2113683455
2156265472-2156331007
2180907008-2180972543
2253062144-2253127679
2302935040-2303000575
2341863424-2341928959
2380201984-2380267519
2415394816-2415460351
2466643968-2466709503
2469068800-2469134335
2469265408-2469330943
2469330944-2469396479
2526412800-2526478335
2528575488-2528641023
2529492992-2529558527
2556624896-2556690431
2559901696-2559967231
2584346624-2584412159
2615541760-2615607295
2626879488-2626945023
2646933504-2646999039
2653683712-2653749247
2709127168-2709192703
2744647680-2744713215
2746482688-2746548223
2748645376-2748710911
2749235200-2749300735
2749693952-2749759487
2750349312-2750414847
2751397888-2751463423
2759589888-2759655423
2759655424-2759720959
2776891392-2776956927
2776956928-2777022463
2777481216-2777546751
2780430336-2780495871
2780954624-2781020159
2782199808-2782265343
2783248384-2783313919
2784165888-2784231423
2784231424-2784296959
2784362496-2784428031
2790195200-2790260735
2791768064-2791833599
2791833600-2791899135
2793209856-2793275391
2823684096-2823749631
2826108928-2826174463
2826829824-2826895359
2827157504-2827223039
2828664832-2828730367
2830893056-2830958591
2832924672-2832990207
2834825216-2834956287
2844524544-2844590079
2848980992-2850029567
2937856000-2937860095
2938699776-2938703871
2939002880-2939004927
2939011072-2939027455
2942976000-2942992383
2943041536-2943057919
2943291392-2943295487
2943352832-2944401407
2946367488-2946375679
2947579904-2947583999
2948595712-2952790015
3024093184-3024617471
3025141760-3025403903
3025944576-3025960959
3025989632-3025993727
3028484096-3028500479
3028549632-3028811775
3029644288-3029645311
3029778432-3029786623
3029786624-3029788671
3031826432-3031891967
3032301568-3032317951
3032330240-3032334335
3033661440-3033694207
3033710592-3033712639
3033726976-3033743359
3034504192-3034505215
3034578944-3035103231
3035217920-3035234303
3035365376-3035627519
3055484928-3055550463
3056734208-3056738303
3056738304-3056746495
3064029184-3064037375
3064037376-3064070143
3064070144-3064135679
3064168448-3064201215
3064725504-3064791039
3064811520-3064815615
3064815616-3064823807
3064832000-3064840191
3066036224-3066560511
3067084800-3068133375
3068133376-3068657663
3068993536-3069001727
3069001728-3069018111
3069034496-3069050879
3069968384-3069984767
3070001152-3070033919
3070197760-3070230527
3075375104-3075383295
3075391488-3075407871
3075915776-3075932159
3076161536-3076169727
3076243456-3076259839
3076521984-3078619135
3221576192-3221576447
3227779584-3227779839
3228045056-3228045311
3229880064-3229880319
3229939456-3229939711
3229939712-3229939967
3229939968-3229940223
3229940224-3229940479
3229940480-3229940735
3234014976-3234015231
3234015232-3234015487
3234564608-3234564863
3234564864-3234565119
3234565120-3234566143
3234566144-3234566399
3234566400-3234566655
3234566656-3234566911
3237345536-3237345791
3237345792-3237346047
3237346048-3237346303
3237548032-3237550079
3237550080-3237550591
3237550592-3237551103
3237551104-3237552127
3389198336-3389202431
3389415168-3389415423
3389562880-3389571071
3389938176-3389938687
3389941504-3389941759
3389957376-3389957631
3390329344-3390329599
3390329600-3390329855
3390329856-3390330367
3390330368-3390330623
3390333696-3390333951
3390338816-3390339071
3390341120-3390373887
3390373888-3390375935
3390447616-3390455807
3390963712-3391094783
3391827968-3391830015
3391830016-3391832063
3392114432-3392114687
3392919552-3392921599
3393511424-3393519615
3393815552-3393816575
3394635776-3394637823
3394862080-3394863103
3394893824-3394894847
3395094016-3395094527
3397283840-3397285887
3397411840-3397412351
3397588992-3397591039
3397718016-3397722111
3397939200-3397943295
3397943296-3397951487
3398873088-3398877183
3399389184-3399393279
3399712768-3399720959
3399825408-3399826431
3399995392-3399999487
3400267776-3400268799
3400423424-3400424447
3400773632-3400775679
3401416704-3401420799
3406946816-3406947071
3410866176-3410866431
3411085312-3411086335
3411116032-3411124223
3411204864-3411205119
3411205120-3411205631
3411210240-3411212287
3411247104-3411255295
3411341312-3411345407
3411681280-3411689471
3412369408-3412377599
3412918272-3412926463
3413884928-3413893119
3414204416-3414212607
3414212608-3414220799
3414223872-3414224895
3414230528-3414231039
3414310912-3414319103
3414319104-3414327295
3414339584-3414343679
3414466560-3414474751
3414532096-3414540287
3415121920-3415130111
3415136256-3415136767
3415568384-3415572479
3415777280-3415785471
3415838720-3415842815
3416296448-3416297471
3416707072-3416709119
3416851456-3416851967
3416940544-3416948735
3417022464-3417030655
3417137152-3417145343
3417251840-3417260031
3417291776-3417292799
3418227712-3418228735
3418233344-3418233855
3419344896-3419348991
3419541504-3419545599
3419545600-3419553791
3419693056-3419701247
3419709440-3419717631
3419914240-3419922431
3419971584-3419979775
3420045312-3420061695
3420413952-3420422143
3420434688-3420434943
3420454912-3420520447
3420520448-3420585983
3420585984-3420717055
3420717056-3420979199
3420979200-3421044735
3421044736-3421077503
3421077504-3421110271
3421110272-3421241343
3421241344-3421503487
3421503488-3422027775
3422027776-3422060543
3422060544-3422093311
3422093312-3422158847
3422158848-3422289919
3422289920-3422294015
3422294016-3422298111
3422298112-3422306303
3422306304-3422322687
3422322688-3422355455
3422355456-3422420991
3422420992-3422552063
3470458880-3470475263
3523223552-3523231743
3523354624-3523362815
3523500032-3523502079
3523532800-3523534847
3524313088-3524329471
3527008256-3527016447
3528482816-3528486911
3528486912-3528491007
3528966144-3528974335
3529089024-3529097215
3529113600-3529244671
3529244672-3529261055
3529261056-3529277439
3529277440-3529310207
3529310208-3529375743
3529375744-3529506815
3529506816-3529539583
3529539584-3529572351
3529572352-3529605119
3529605120-3529621503
3529621504-3529637887
3529637888-3529670655
3529670656-3529687039
3529687040-3529703423
3529703424-3529768959
3529768960-3529834495
3529834496-3529867263
3529867264-3529883647
3529883648-3529900031
3529900032-3529908223
3529908224-3529916415
3529916416-3529932799
3529932800-3529965567
3529965568-3529998335
3529998336-3530014719
3530014720-3530022911
3530022912-3530031103
3530031104-3530162175
3530162176-3530194943
3530194944-3530211327
3530211328-3530219519
3530219520-3530227711
3530227712-3530260479
3530260480-3530293247
3530293248-3530358783
3530358784-3530424319
3530424320-3530555391
3530555392-3530817535
3530817536-3531079679
3531079680-3531145215
3531145216-3531210751
3531210752-3531341823
3531341824-3531407359
3531407360-3531472895
3531472896-3531603967
3534880768-3535011839
3535011840-3535020031
3535020032-3535028223
3535028224-3535044607
3535044608-3535060991
3535060992-3535069183
3535069184-3535077375
3535077376-3535142911
3535142912-3535208447
3535208448-3535273983
3535814656-3535822847
3536584704-3536715775
3536715776-3536781311
3536781312-3536846847
3537027072-3537043455
3537043456-3537047551
3537059840-3537068031
3537371136-3537436671
3537436672-3537502207
3537502208-3537534975
3537534976-3537551359
3537551360-3537559551
3537559552-3537567743
3537567744-3537633279
3537633280-3537649663
3537649664-3537657855
3537657856-3537666047
3537666048-3537698815
3537698816-3537764351
3537764352-3537895423
3542089728-3542155263
3542155264-3542220799
3542220800-3542351871
3542351872-3542384639
3542384640-3542401023
3542401024-3542409215
3542409216-3542417407
3542417408-3542482943
3542482944-3542614015
3542614016-3542679551
3542679552-3542745087
3542745088-3542777855
3542777856-3542786047
3542786048-3542794239
3542794240-3542802431
3542802432-3542810623
3542810624-3542876159
3542876160-3542941695
3542941696-3542974463
3542974464-3542990847
3542990848-3543007231
3543007232-3543138303
3543138304-3543269375
3543269376-3543334911
3543334912-3543400447
3543400448-3543465983
3543465984-3543531519
3543531520-3543662591
3543662592-3543924735
3543924736-3543990271
3543990272-3544055807
3544055808-3544088575
3544088576-3544121343
3544121344-3544129535
3544129536-3544137727
3544137728-3544154111
3544154112-3544186879
3546808320-3547332607
3547332608-3547594751
3547594752-3547611135
3547611136-3547627519
3547627520-3547660287
3547660288-3547725823
3547725824-3547791359
3547791360-3547856895
3551002624-3551068159
3551068160-3551133695
3551133696-3551199231
3551199232-3551264767
3551264768-3551526911
3551526912-3551789055
3551789056-3551854591
3551854592-3551920127
3551920128-3552051199
3552051200-3552575487
3552575488-3553099775
3553099776-3553165311
3553165312-3553230847
3553230848-3553361919
3553361920-3553492991
3553492992-3553558527
3553558528-3553624063
3553624064-3553886207
3553886208-3554148351
3554148352-3554213887
3554213888-3554279423
3554279424-3554410495
3554410496-3554672639
3554672640-3554803711
3554803712-3554934783
3554934784-3555196927
3555196928-3555327999
3555328000-3555344383
3555344384-3555352575
3555352576-3555360767
3555360768-3555393535
3555393536-3555459071
3555459072-3555721215
3555721216-3556245503
3556245504-3556507647
3556507648-3556638719
3556638720-3556671487
3556671488-3556687871
3556687872-3556704255
3556704256-3556769791
3659792384-3660054527
3660578816-3660709887
3660709888-3660840959
3660840960-3661103103
3664084992-3664117759
3666870272-3667918847
3671130112-3671195647
3672637440-3672768511
3672768512-3672899583
3672899584-3673161727
3689938944-3690070015
3690463232-3690987519
3695181824-3695706111
3695706112-3696230399
3696230400-3696754687
3696754688-3697016831
3697016832-3697278975
3697737728-3697803263
3698589696-3698851839
3698851840-3699376127
3700752384-3700817919
3706060800-3706126335
3716431872-3716440063
3716493312-3716497407
3716513792-3716530175
3716808704-3716939775
3716939776-3717201919
3717201920-3718250495
3718250496-3718774783
3718774784-3718840319
3730833408-3731881983
3731881984-3732406271
3732406272-3732537343
3732537344-3732602879
3739680768-3739697151
3739746304-3740270591
3741024256-3741057023
3743055872-3743088639
3743186944-3743219711
3743416320-3745513471
3749855232-3749871615
3749871616-3749904383
3749904384-3749969919
3752165376-3752198143
3752329216-3752853503
3754033152-3754164223
3755868160-3755933695
3757899776-3757965311
3758080000-3758088191
