1075609600-1075613695
1540726016-1540726271
2202553344-2202554367
2204378112-2204379135
2204409856-2204410879
2212305920-2212306943
2319128576-2319129599
2701160448-2701162495
2701189120-2701197311
3003128832-3003129087
3003171840-3003172863
3007108096-3007109119
3048996864-3049029631
3123445760-3123576831
3188121600-3188125695
3191472128-3191537663
3191537664-3191603199
3193143296-3193176063
3193765888-3193774079
3193782272-3193798655
3194052608-3194056703
3201630208-3201646591
3201646592-3201662975
3201662976-3201695743
3288564736-3288565759
3288565760-3288567807
3288567808-3288568831
3290251264-3290259455
3290439680-3290447871
3355535360-3355537407
3355684864-3355686911
3355924480-3355926527
3356088320-3356088831
3356088832-3356089087
3356291072-3356293119
3362521088-3362525183
3362525184-3362529279
3363676160-3363678207
3386720256-3386724351
3386724352-3386728447
3387834368-3387850751
3512647680-3512655871
