2170159104-2170224639
2202576896-2202577919
2212327424-2212328447
2214553600-2214554623
2315266048-2315267071
2319124480-2319125503
2319152128-2319153151
2528706560-2528772095
2528772096-2528903167
2528903168-2529034239
2661285888-2661351423
2673475584-2673541119
2702581760-2702585855
2710306816-2710372351
2713976832-2714042367
2715025408-2715090943
2716467200-2716532735
2717843456-2717908991
2725904384-2725969919
2810576896-2810642431
3004432384-3004694527
3006005248-3006267391
3037790208-3037855743
3037855744-3037986815
3038904320-3039035391
3048126464-3048128511
3048472576-3048734719
3048734720-3048996863
3050307584-3050340351
3050340352-3050373119
3051429888-3051438079
3121479680-3121545215
3122135040-3122167807
3122167808-3122200575
3122200576-3122266111
3122266112-3122282495
3122298880-3122331647
3126329344-3126853631
3126870016-3126874111
3131310080-3131441151
3131441152-3131506687
3131506688-3131572223
3132620800-3132751871
3132751872-3132882943
3132882944-3132915711
3188064256-3188080639
3188237312-3188238335
3188238336-3188239359
3188293632-3188301823
3188695040-3188699135
3188699136-3188703231
3190030336-3190292479
3191103488-3191107583
3192389632-3192651775
3192651776-3192717311
3192717312-3192782847
3192782848-3192913919
3193777152-3193778175
3193880576-3193888767
3193888768-3193896959
3194085376-3194093567
3194428416-3194429439
3194429440-3194433535
3194433536-3194437631
3194976256-3194977279
3195203584-3195205631
3195598848-3195600895
3195658240-3195662335
3195721728-3195723775
3195772928-3195777023
3195777024-3195781119
3195804672-3195805695
3196977152-3197042687
3197698048-3197730815
3198681088-3198713855
3198713856-3198730239
3198730240-3198746623
3198746624-3198812159
3198812160-3198828543
3198828544-3198844927
3198844928-3198861311
3198861312-3198877695
3200647168-3200778239
3200778240-3201302527
3210809344-3210810367
3225524224-3225524479
3355459840-3355460095
3355478784-3355479039
3355508736-3355509759
3355509760-3355510271
3355510784-3355512831
3355539200-3355539455
3355545600-3355547647
3355550208-3355550719
3355550720-3355551743
3355551744-3355552767
3355555840-3355557887
3355576320-3355578367
3355639808-3355641855
3355641856-3355642367
3355669504-3355670527
3355774976-3355779071
3355781120-3355783167
3355803648-3355820031
3355843328-3355843583
3355967488-3356033023
3356163584-3356163839
3356196864-3356229631
3356279040-3356279295
3356362752-3356364799
3356509184-3356510207
3356516096-3356516351
3357188096-3357190143
3357507584-3357515775
3357736960-3357745151
3357753344-3357769727
3357769728-3357773823
3357786112-3357794303
3357794304-3357798399
3357798400-3357802495
3358326784-3358392319
3358523392-3358556159
3358556160-3358564351
3358564352-3358566399
3358566400-3358567423
3358568448-3358572543
3358572544-3358576639
3358576640-3358578687
3358579712-3358580735
3358580736-3358588927
3359356928-3359358975
3359505408-3359505663
3360124928-3360125951
3360129024-3360133119
3360133120-3360137215
3360137216-3360145407
3360157696-3360159743
3360276480-3360278527
3360342016-3360350207
3360350208-3360354303
3360382976-3360391167
3360391168-3360395263
3360395264-3360399359
3360849920-3360858111
3360858112-3360862207
3360862208-3360866303
3360866304-3360870399
3360870400-3360874495
3360874496-3360882687
3360948224-3360980991
3360980992-3360989183
3360989184-3360997375
3360997376-3361013759
3361030144-3361034239
3361341440-3361349631
3361349632-3361357823
3361357824-3361374207
3361538048-3361554431
3361554432-3361562623
3361562624-3361570815
3362504704-3362506751
3362586624-3362619391
3362619392-3362652159
3362713600-3362717695
3363600640-3363600895
3363682304-3363684351
3370489856-3370490879
3370506240-3370507263
3380761088-3380761599
3385851904-3386114047
3386769408-3386773503
3387817984-3387826175
3387826176-3387834367
3388080128-3388145663
3388145664-3388211199
3388473344-3388538879
3388538880-3388555263
3388555264-3388571647
3388571648-3388604415
