16809984-16842751
16875520-16908287
16941056-16973823
17072128-17104895
17465344-17498111
18087936-18153471
19791872-19922943
28540928-28573695
243271680-243272703
248446976-248512511
456589312-456654847
459548672-459550719
461049856-461050879
461504512-461570047
461602816-461619199
462487552-462553087
469630976-469696511
710961152-710962175
822099968-822116351
825229312-825360383
825419776-825420799
837025792-837156863
837156864-837222399
837222400-837230591
837230592-837238783
837238784-837255167
837255168-837287935
837615616-837681151
973602816-973733887
973733888-973864959
977272832-977305599
979435520-979468287
981991424-982056959
982056960-982122495
982712320-982745087
984973312-985006079
1023901696-1023934463
1024655360-1024671743
1024671744-1024688127
1024688128-1024720895
1026490368-1026523135
1029308416-1029373951
1029373952-1029390335
1029390336-1029406719
1029406720-1029414911
1029414912-1029423103
1029423104-1029439487
1697841152-1697906687
1701576704-1701707775
1728159744-1728160767
1728160768-1728161791
1728212992-1728214015
1728266240-1728267263
1728294912-1728295935
1728355328-1728356351
1728370688-1728371711
1728373760-1728374783
1728387072-1728388095
1728411648-1728412671
1728487936-1728488191
1728488704-1728488959
1728493056-1728493567
1728516096-1728517119
1728526336-1728527359
1728610304-1728611327
1728630784-1728631807
1728766976-1728767999
1728777216-1728778239
1728912384-1728913407
1728959488-1728960511
1728963584-1728964607
1728972800-1728973823
1729012736-1729013759
1729058816-1729059839
1729073152-1729074175
1729154048-1729155071
1729199872-1729200127
1729325056-1729326079
1729394688-1729395711
1729416192-1729417215
1729435648-1729436671
1729541120-1729542143
1729591296-1729592319
1729623552-1729623807
1729716224-1729717247
1729753088-1729754111
1729762304-1729763327
1729803264-1729804287
1729848320-1729849343
1729873920-1729874943
1729913856-1729914879
1729920000-1729921023
1730001920-1730002943
1730051072-1730052095
1743797248-1743798271
1743854592-1743855615
1743855616-1743856639
1743949824-1743950847
1744021504-1744022527
1744179200-1744180223
1744181248-1744182271
1744187904-1744188159
1744223232-1744224255
1744256000-1744257023
1744470016-1744471039
1744487424-1744487935
1744520192-1744521215
1744652288-1744653311
1744663808-1744664063
1744667648-1744668671
1778417664-1778450431
1847754752-1847787519
1848705024-1848770559
1850513408-1850514431
1850572800-1850605567
1850605568-1850671103
1856241664-1856307199
1856503808-1856765951
1867776000-1867841535
1868346368-1868347391
1876893696-1876901887
1887010816-1887019007
1888354304-1888485375
1897263104-1897265151
1899298816-1899364351
1919746048-1919811583
1920991232-1921056767
1921187840-1921253375
1931444224-1931460607
1933770752-1933836287
1935081472-1935147007
1941059584-1941060607
1941060608-1941061631
1950015488-1950023679
1950650368-1950654463
1966014464-1966079999
1970917376-1970921471
1990983680-1991245823
1998520320-1998553087
1999257600-1999273983
1999503360-1999568895
2000379904-2000388095
2000633856-2000642047
2001469440-2001534975
2006212608-2006214655
2007027712-2007031807
2046820352-2046822399
2056263680-2056265727
2056912896-2057043967
2079490048-2079506431
2083053568-2083057663
2087518208-2087519231
2087524352-2087526399
2088239104-2088370175
2088370176-2088435711
2090696704-2090729471
2098724864-2098855935
2098855936-2098987007
2111168512-2111176703
2358575104-2358640639
2645753856-2645819391
2657878016-2657943551
2714238976-2714304511
2717253632-2717319167
2759000064-2759065599
2781937664-2782003199
2826436608-2826502143
2869166080-2869428223
2875195392-2875719679
2947603456-2947604479
3028287488-3028353023
3031695360-3031760895
3031891968-3031957503
3033716736-3033717759
3033972736-3033980927
3034484736-3034488831
3054567424-3054632959
3056750592-3056754687
3056861184-3056992255
3059580928-3059613695
3068657664-3068723199
3070167040-3070169087
3075997696-3076128767
3076171776-3076173823
3223955968-3223956223
3227798784-3227799039
3227867904-3227868159
3227931392-3227931647
3228362240-3228362495
3231119616-3231119871
3231119872-3231120127
3231120128-3231120383
3234592512-3234592767
3234807808-3234808063
3234853376-3234853631
3284043008-3284043263
3325128704-3325129215
3389026048-3389026303
3389027584-3389027839
3389027840-3389028351
3389028352-3389028607
3389211648-3389212671
3389345792-3389349887
3389394944-3389399039
3389413888-3389414143
3389416448-3389416703
3389416704-3389416959
3389418240-3389418495
3389538560-3389538815
3389538816-3389539327
3389539328-3389540351
3389541888-3389542399
3389543424-3389544447
3389608192-3389608447
3389789184-3389789695
3389802752-3389803007
3389803008-3389803263
3389808896-3389809151
3389814016-3389814271
3389814272-3389814527
3389945088-3389945343
3389957120-3389957375
3390335232-3390335487
3390409728-3390409983
3390410752-3390411007
3390412032-3390412287
3390441472-3390443519
3390769664-3390770175
3390832640-3390833151
3390833152-3390833407
3390833408-3390833663
3390833664-3390834687
3390834688-3390836735
3390836736-3390840831
3390840832-3390849023
3390849024-3390865407
3390865408-3390869503
3390869504-3390873599
3390873600-3390881791
3390881792-3390898175
3390898176-3390898687
3390898688-3390899199
3390899200-3390900223
3390900224-3390902271
3390902272-3390906367
3390906368-3390914559
3390914560-3390930943
3390930944-3390963711
3391725568-3391733759
3391823872-3391827967
3391881216-3391883263
3391883264-3391885311
3391889408-3391893503
3391894528-3391895551
3391897600-3391898111
3391898112-3391898367
3391898624-3391899647
3391899648-3391900159
3391905792-3391906047
3391913984-3391914239
3391914496-3391915007
3391915776-3391916031
3391916032-3391916287
3391916544-3391916799
3391916800-3391917055
3391917056-3391917567
3391917568-3391918079
3391918080-3391918335
3391918336-3391918591
3391919104-3391920127
3391930368-3391946751
3392135168-3392139263
3392139264-3392141311
3392141312-3392143359
3392406528-3392407551
3392637952-3392638975
3392765952-3392766975
3392766976-3392767999
3392768000-3392770047
3392770048-3392774143
3392774144-3392782335
3392830976-3392831231
3392861184-3392861439
3392978944-3392983039
3393554432-3393556479
3393679360-3393683455
3394297856-3394301951
3394301952-3394303999
3394304000-3394305023
3394305024-3394306047
3394896896-3394897919
3394965504-3394967551
3395104768-3395108863
3395176704-3395176959
3395177472-3395177983
3395219456-3395223551
3397003264-3397005311
3397026304-3397026815
3397211136-3397211647
3397451776-3397459967
3397459968-3397468159
3397504000-3397505023
3397746688-3397750783
3397750784-3397754879
3397754880-3397763071
3398156288-3398164479
3398352896-3398361087
3398402048-3398418431
3398742016-3398746111
3398768640-3398770687
3398787072-3398795263
3398894592-3398895615
3398903808-3398905855
3398938624-3398942719
3399633920-3399634943
3400167424-3400171519
3400273920-3400275967
3400388608-3400392703
3400548352-3400556543
3400556544-3400564735
3400564736-3400581119
3400925184-3400926207
3400926208-3400927231
3400927232-3400929279
3400929280-3400933375
3401023488-3401031679
3401031680-3401039871
3401039872-3401043967
3401043968-3401046015
3401046016-3401047039
3401047040-3401048063
3401048064-3401052159
3401052160-3401054207
3401054208-3401055231
3401055232-3401056255
3406077952-3406078207
3406514688-3406514943
3407161856-3407162367
3407642624-3407643135
3407998976-3407999231
3409876992-3409878015
3410911232-3410915327
3411032064-3411032319
3412327424-3412327935
3412819968-3412836351
3412836352-3412852735
3413180416-3413188607
3413188608-3413196799
3413196800-3413204991
3413204992-3413213183
3413270528-3413278719
3413524480-3413528575
3413528576-3413532671
3413532672-3413536767
3413536768-3413540863
3413737472-3413745663
3413745664-3413753855
3414327296-3414335487
3414413312-3414417407
3415244800-3415252991
3415252992-3415261183
3415261184-3415269375
3415269376-3415273471
3415273472-3415275519
3415275520-3415276543
3415276544-3415277567
3415306240-3415308287
3415343104-3415344127
3415344128-3415345151
3415345152-3415347199
3415347200-3415351295
3415351296-3415359487
3415359488-3415367679
3415367680-3415375871
3415375872-3415384063
3415384064-3415392255
3415392256-3415400447
3415400448-3415408639
3415408640-3415409663
3415409664-3415410687
3415410688-3415412735
3415412736-3415416831
3415416832-3415425023
3415506944-3415515135
3415515136-3415523327
3415523328-3415531519
3415531520-3415535615
3415535616-3415537663
3415537664-3415538687
3415538688-3415539711
3415539712-3415540735
3415540736-3415541759
3415541760-3415543807
3415543808-3415547903
3415547904-3415556095
3415605248-3415638015
3415638016-3415670783
3415670784-3415703551
3415703552-3415736319
3415814656-3415815167
3415834624-3415838719
3415842816-3415846911
3415846912-3415851007
3415867392-3415900159
3415900160-3415916543
3415916544-3415932927
3415932928-3415965695
3415965696-3415969791
3415969792-3415971839
3415971840-3415973887
3415973888-3415982079
3415982080-3415998463
3415998464-3416014847
3416014848-3416031231
3416031232-3416047615
3416064000-3416129535
3416129536-3416131583
3416154112-3416162303
3416162304-3416195071
3416195072-3416260607
3416261632-3416262655
3416295680-3416295935
3416920064-3416921087
3416928768-3416929279
3416948736-3416965119
3416965120-3416981503
3417055232-3417063423
3417063424-3417079807
3417079808-3417112575
3417915392-3417923583
3417923584-3417931775
3417931776-3417939967
3418095616-3418111999
3418190848-3418191871
3418290688-3418291199
3418365952-3418370047
3418370048-3418374143
3418578944-3418583039
3419471872-3419488255
3419488256-3419504639
3419520768-3419521023
3420411904-3420412415
3523280896-3523297279
3523510272-3523518463
3528884224-3528900607
3528900608-3528908799
3536551936-3536568319
3537174528-3537190911
3539353600-3539369983
3539369984-3539402751
3663996416-3663996671
3663998464-3663998975
3664003584-3664003839
3716169728-3716186111
3732602880-3732668415
3742892032-3742957567
3743006720-3743014911
3743137792-3743154175
3754688512-3754950655
