692043776-692060159
693056512-693057535
699793408-699858943
700339200-700340223
700342272-700350463
701333504-701341695
702169088-702185471
702234624-702251007
702500864-702501887
1776812032-1776877567
2583740416-2583756799
3288407040-3288408063
3288555008-3288555263
3289123328-3289123583
3289645056-3289653247
3291250688-3291258879
3291283456-3291287551
3291356160-3291356415
3302498304-3302506495
3302532096-3302533119
3302953472-3302953727
3317432320-3317497855
3320381440-3320446975
3320463360-3320479743
3321069568-3321102335
3432517120-3432517631
