83965952-83967999
85366784-85368831
86761472-86763519
86849536-86851583
87361536-87363583
87752704-87818239
90583040-90587135
90705920-90707967
93415424-93417471
96894976-96897023
520613888-520615935
520763392-520765439
521078784-521080831
521961472-521969663
522059776-522125311
522143744-522145791
522182656-522190847
522831872-522833919
523198464-523202559
528656384-528658431
528748544-528752639
528812032-528814079
528930816-528932863
529793024-529858559
531202048-531234815
531279872-531281919
531699712-531701759
532330496-532332543
532692992-532701183
533659648-533676031
534642688-534646783
621395968-621398015
623644672-623648767
623792128-623794175
623824896-623826943
623902720-623919103
625860608-625868799
630157312-630159359
631095296-631097343
633110528-633143295
635301888-635305983
636182528-636186623
772603904-772669439
772831232-772833279
773271552-773275647
773292032-773296127
773613568-773615615
773699584-773701631
773709824-773711871
773734400-773736447
773740544-773742591
773754880-773756927
773777408-773779455
773939200-773947391
774119424-774127615
774348800-774356991
774864896-774881279
780599296-780664831
781545472-781549567
782745600-782761983
783138816-783142911
783159296-783161343
783163392-783165439
783169536-783171583
783194112-783196159
783243264-783245311
783265792-783267839
783759360-783761407
783761408-783763455
786567168-786569215
786630656-786632703
786671616-786673663
786698240-786702335
786788352-786792447
786909184-786911231
787111936-787120127
787128320-787136511
787677184-787679231
787689472-787691519
788324352-788328447
788357120-788361215
788414464-788416511
788465664-788467711
788520960-788523007
1040474112-1040482303
1041776640-1041784831
1042825216-1042833407
1043070976-1043079167
1045250048-1045266431
1045446656-1045454847
1045725184-1045733375
1047363584-1047371775
1048225792-1048227839
1048649728-1048657919
1049427968-1049436159
1051197440-1051213823
1051803648-1051820031
1052174336-1052176383
1053364224-1053368319
1053614080-1053622271
1053933568-1053949951
1055956992-1055965183
1056260096-1056276479
1294991360-1295056895
1296779264-1296781311
1296973824-1296990207
1297606656-1297608703
1297608704-1297610751
1297924096-1297932287
1297989632-1297997823
1298081792-1298083839
1298120704-1298122751
1298710528-1298726911
1307191296-1307193343
1307361280-1307369471
1307410432-1307418623
1307598848-1307602943
1307619328-1307623423
1307725824-1307729919
1310197760-1310199807
1310255104-1310257151
1310660608-1310662655
1311311872-1311313919
1311313920-1311315967
1311506432-1311637503
1313865728-1313898495
1313898496-1313931263
1315307520-1315438591
1315725312-1315729407
1315737600-1315741695
1315745792-1315749887
1315885056-1315889151
1315926016-1315930111
1317044224-1317076991
1317568512-1317584895
1318854656-1318862847
1318879232-1318887423
1318944768-1318952959
1318952960-1318961151
1331841024-1331843071
1331861504-1331863551
1332617216-1332621311
1333755904-1333788671
1334702080-1334706175
1334743040-1334747135
1336604672-1336606719
1336653824-1336655871
1346482176-1346486271
1347035136-1347039231
1347325952-1347330047
1347358720-1347362815
1347588096-1347592191
1347633152-1347637247
1347923968-1347928063
1348108288-1348112383
1348268032-1348272127
1348427776-1348431871
1348431872-1348435967
1348464640-1348468735
1354498048-1354563583
1358127104-1358131199
1358561280-1358565375
1358565376-1358569471
1358688256-1358692351
1359003648-1359020031
1359134720-1359151103
1360199680-1360203775
1360207872-1360211967
1360596992-1360601087
1360773120-1360777215
1360793600-1360797695
1360977920-1360986111
1360994304-1360998399
1364893696-1364897791
1364914176-1364918271
1364938752-1364942847
1364971520-1364975615
1365020672-1365024767
1365204992-1365209087
1369522176-1369530367
1369620480-1369624575
1369657344-1369659391
1372073984-1372078079
1372139520-1372143615
1382252544-1382268927
1382285312-1382301695
1383145472-1383153663
1383251968-1383260159
1383432192-1383440383
1383591936-1383596031
1385054208-1385070591
1385201664-1385209855
1385603072-1385611263
1388969984-1388986367
1388986368-1389002751
1389363200-1389379583
1389428736-1389445119
1397039104-1397047295
1401473024-1401475071
1402208256-1402224639
1403510784-1403518975
1406140416-1406205951
1408237568-1408270335
1410359296-1410367487
1410547712-1410555903
1410686976-1410695167
1412071424-1412104191
1425162240-1425178623
1425293312-1425309695
1425448960-1425451007
1426931712-1426948095
1430650880-1430781951
1432100864-1432109055
1432182784-1432190975
1432199168-1432207359
1433829376-1433831423
1433884672-1433886719
1434746880-1434779647
1434910720-1434943487
1436549120-1436811263
1438711808-1438728191
1439629312-1439694847
1441742848-1441751039
1441783808-1441791999
1446051840-1446117375
1446871040-1446903807
1447018496-1447026687
1475133440-1475135487
1475969024-1475977215
1481719808-1481727999
1481875456-1481883647
1481891840-1481900031
1482055680-1482063871
1482948608-1483210751
1485963264-1485996031
1485996032-1486028799
1490042880-1490059263
1494626304-1494626559
1494630400-1494638591
1494745088-1494777855
1494777856-1494810623
1495072768-1495105535
1495205888-1495207935
1495214080-1495216127
1495244800-1495246847
1499856896-1499987967
1500463104-1500479487
1504706560-1504837631
1505353728-1505361919
1505460224-1505468415
1505468416-1505476607
1505476608-1505478655
1505632256-1505640447
1505640448-1505648639
1506508800-1506541567
1507708928-1507713023
1508474880-1508491263
1508573184-1508589567
1508835328-1508851711
1509486592-1509490687
1509580800-1509584895
1509617664-1509621759
1521483776-1522008063
1533435904-1533437951
1533517824-1533519871
1533734912-1533739007
1533878272-1533880319
1535836160-1535868927
1536325632-1536327679
1538990080-1538998271
1539211264-1539213311
1539317760-1539318783
1539408896-1539409919
1539533312-1539533823
1539557888-1539558399
1539666944-1539667967
1539810304-1539810559
1539821312-1539821567
1539904512-1539905535
1539978240-1539979263
1540211456-1540211711
1540250368-1540250623
1540340736-1540341247
1540449536-1540449791
1540493312-1540494335
1540688384-1540688639
1540717056-1540717311
1540722432-1540722687
1540726784-1540727039
1540739840-1540740095
1540748288-1540748543
1540791296-1540792319
1540800512-1540801535
1540819968-1540820991
1540925440-1540925695
1540928256-1540928511
1540929792-1540930047
1540961280-1540961791
1540972544-1540973055
1541061632-1541062655
1541072896-1541073919
1541090304-1541091327
1541140480-1541141503
1541141504-1541142527
1541175808-1541176063
1541196032-1541196287
1541210624-1541211135
1541219840-1541220351
1541221888-1541222399
1541228544-1541229055
1541248000-1541248511
1541264384-1541264895
1541288960-1541289983
1541327872-1541328895
1541360128-1541360383
1541419008-1541419519
1541429760-1541430271
1541493760-1541494783
1541569536-1541570559
1541593088-1541594111
1541605120-1541605375
1541627904-1541628415
1541637632-1541638143
1541653248-1541653503
1541662720-1541663743
1541680128-1541681151
1541694464-1541694719
1541724160-1541725183
1541740544-1541740799
1541798912-1541799935
1541836800-1541837055
1541872640-1541873663
1541909248-1541909503
1541952000-1541952255
1541952512-1541953535
1541985280-1541986303
1541986816-1541987327
1541987328-1541988351
1541994240-1541994495
1542049792-1542050815
1542072320-1542073343
1542103552-1542104063
1542125568-1542126591
1542174208-1542174463
1542174464-1542174719
1542178816-1542179327
1542203392-1542204415
1542271744-1542271999
1542319104-1542320127
1542350848-1542351359
1542358272-1542358527
1542359040-1542360063
1542440960-1542441983
1542450176-1542450687
1542464256-1542464511
1542492416-1542492671
1542497536-1542497791
1542522880-1542523903
1542526720-1542526975
1542782976-1542791167
1542807552-1542815743
1542930432-1542930943
1545994240-1546027007
1546328064-1546330111
1546336256-1546338303
1547522048-1547526143
1547624448-1547628543
1547644928-1547649023
1559273472-1559281663
1559478272-1559486463
1560117248-1560150015
1566138368-1566142463
1566150656-1566154751
1566220288-1566224383
1566257152-1566261247
1566281728-1566285823
1566306304-1566310399
1566322688-1566324735
1566384128-1566386175
1566515200-1566517247
1566769152-1566834687
1570308096-1570340863
1570603008-1570605055
1571422208-1571553279
1572159488-1572175871
1572405248-1572409343
1572417536-1572421631
1572429824-1572433919
1572562944-1572564991
1572745216-1572747263
1572747264-1572749311
1572765696-1572767743
1581957120-1581973503
1584398336-1584660479
1585195008-1585197055
1585211392-1585213439
1585231872-1585233919
1585248256-1585250303
1585305600-1585307647
1585414144-1585416191
1586126848-1586135039
1586423808-1586425855
1586472960-1586475007
1586489344-1586491391
1590063104-1590065151
1590091776-1590093823
1590095872-1590097919
1590110208-1590112255
1590149120-1590151167
1592086528-1592090623
1592168448-1592172543
1592868864-1592885247
1592934400-1592950783
1593253888-1593255935
1593503744-1593505791
1596850176-1596981247
1599127552-1599143935
1599242240-1599258623
1599455232-1599471615
1602314240-1602316287
1602351104-1602353151
1603072000-1603076095
1603239936-1603244031
1604894720-1604902911
1605189632-1605197823
1605222400-1605230591
1607987200-1607988223
1833252864-1833254911
1833291776-1833293823
1833422848-1833424895
1833435136-1833439231
1833553920-1833558015
1833631744-1833635839
1833668608-1833672703
1833959424-1834090495
1835606016-1835614207
1835778048-1835786239
1835819008-1835827199
1836826624-1836843007
1839464448-1839497215
1840709632-1840775167
1841971200-1841979391
1842169856-1842171903
1842212864-1842214911
1843412992-1843429375
1843888128-1843904511
1843957760-1843959807
1844002816-1844004863
1844004864-1844006911
1844027392-1844029439
1844062208-1844064255
1844117504-1844119551
1844162560-1844164607
1844322304-1844326399
1844367360-1844371455
1844396032-1844400127
2147528704-2147532799
2193207296-2193209343
2193688576-2193690623
2193690624-2193692671
2205532160-2205534207
2205536256-2205538303
2304901120-2304966655
2376761344-2376777727
2456158208-2456223743
2457337856-2457403391
2459828224-2459860991
2466191360-2466193407
2468347904-2468413439
2468413440-2468478975
2481192960-2481258495
2481258496-2481324031
2481324032-2481389567
2481389568-2481455103
2482700288-2482765823
2503905280-2503907327
2516533248-2516541439
2548948992-2548951039
2549704704-2549706751
2549710848-2549743615
2626224128-2626289663
2663514112-2663579647
2663645184-2663710719
2667515904-2667519999
2667520000-2667522047
2684217344-2684219391
2698510336-2698575871
2698575872-2698641407
2698641408-2698706943
2765582336-2765586431
2772959232-2773024767
2870587392-2870587647
2870598656-2870599167
2870599168-2870599423
2871101440-2871103487
2953605120-2953609215
2956910592-2956914687
2957238272-2957240319
2957672448-2957680639
2957694976-2957697023
2959149056-2959151103
2959208448-2959210495
2959237120-2959241215
2959446016-2959450111
2959493120-2959495167
2959499264-2959503359
2959503360-2959505407
2959507456-2959515647
2959597568-2959601663
2959833088-2959835135
2959851520-2959853567
2959947776-2959949823
2960162816-2960171007
2960322560-2960326655
2960576512-2960580607
2960621568-2960629759
2960650240-2960652287
2960719872-2960723967
2960793600-2960797695
2960963584-2960964607
2961063936-2961072127
2967396352-2967398399
2967730176-2967732223
2987458560-2987462655
2987479040-2987483135
2987483136-2987487231
2987689984-2987692031
2987767808-2987769855
2987814912-2987816959
2987907072-2987909119
2987911168-2987913215
2991112192-2991128575
2991439872-2991456255
3000074240-3000082431
3000313856-3000315903
3000342528-3000344575
3000520704-3000522751
3000537088-3000539135
3000563712-3000565759
3000602624-3000604671
3000627200-3000629247
3001950208-3001954303
3002599424-3002601471
3002611712-3002613759
3002660864-3002662911
3002716160-3002718207
3002841088-3002843135
3003099136-3003101183
3103926272-3103927295
3103983616-3103984639
3104021504-3104022527
3104098304-3104099327
3104130048-3104131071
3104169984-3104171007
3104248832-3104249855
3104249856-3104250879
3104254976-3104255999
3104323584-3104324607
3104350208-3104351231
3104351232-3104352255
3104357376-3104358399
3104369664-3104370687
3104404480-3104405503
3104461824-3104462847
3104500736-3104501759
3104621568-3104622591
3104750592-3104751615
3104759808-3104760831
3104761856-3104762879
3104766976-3104767999
3104795648-3104796671
3104804864-3104805887
3104832512-3104833535
3104879616-3104880639
3104915456-3104916479
3104924672-3104925695
3104928768-3104929791
3104953344-3104954367
3104971776-3104972799
3105030144-3105031167
3105145856-3105146879
3105202176-3105203199
3105211392-3105212415
3105217536-3105218559
3105251328-3105252351
3105258496-3105259519
3105287168-3105288191
3105359872-3105360895
3105362944-3105363967
3105418240-3105419263
3105470464-3105471487
3105669120-3105670143
3105825792-3105826815
3105898496-3105899519
3105923072-3105924095
3105928192-3105929215
3105982464-3105983487
3105987584-3105988607
3106106368-3106107391
3106112512-3106113535
3106169856-3106170879
3106185216-3106186239
3106302976-3106303999
3106323456-3106324479
3106426880-3106427903
3106485248-3106486271
3106595840-3106596863
3159064576-3159080959
3160147968-3160150015
3160156160-3160158207
3160170496-3160172543
3160336384-3160338431
3160356864-3160358911
3160373248-3160375295
3161735168-3161751551
3162030080-3162038271
3162161152-3162169343
3162931200-3162963967
3165585408-3165650943
3166646272-3166650367
3166667264-3166667775
3169026048-3169034239
3170119680-3170123775
3170263040-3170271231
3225431040-3225431551
3228335616-3228335871
3228336128-3228336383
3228336384-3228336639
3228511232-3228511487
3230845952-3230846207
3231866880-3231867903
3238061824-3238062079
3238548992-3238549503
3239077888-3239078143
3239120128-3239120383
3239128832-3239129087
3239180288-3239181311
3239292928-3239293951
3239889408-3239889663
3239955968-3239956223
3240114176-3240114431
3240168960-3240169471
3240171008-3240171519
3240197632-3240198143
3240308736-3240309759
3240322560-3240323071
3240323072-3240324095
3241822208-3241824255
3243507968-3243508223
3243508224-3243508479
3243508480-3243508735
3243508736-3243508991
3243508992-3243509247
3243509248-3243509503
3243509504-3243509759
3243510272-3243510527
3243510528-3243510783
3243510784-3243511807
3243515904-3243519999
3243520000-3243520255
3243520256-3243520511
3243521280-3243521535
3243521792-3243524095
3243525120-3243525375
3243525632-3243525887
3243528192-3243529215
3243531264-3243531519
3243531520-3243531775
3243532288-3243533311
3243533312-3243533823
3243533824-3243534335
3243534336-3243535359
3243535360-3243536383
3243536896-3243537151
3243537408-3243537919
3243538432-3243540479
3243540480-3243540991
3243540992-3243542527
3243542528-3243543551
3243543552-3243544063
3243544576-3243548671
3243548672-3243552767
3243555328-3243555583
3243555840-3243556351
3243556352-3243556863
3243556864-3243565055
3243569152-3243570175
3243570176-3243570431
3243570432-3243570687
3243570944-3243571199
3243571200-3243571455
3243571456-3243571711
3243572224-3243572479
3243572480-3243572735
3243572736-3243572991
3243573248-3243638783
3243638784-3243704319
3244822784-3244823039
3244846592-3244846847
3244862464-3244862719
3244883456-3244883711
3244924160-3244924927
3245056000-3245057023
3245079552-3245080575
3245096960-3245099007
3245107712-3245108735
3245191168-3245193215
3245309952-3245311999
3247066624-3247066879
3247073792-3247074047
3247085568-3247086591
3247836160-3247837183
3247839232-3247839743
3247842048-3247842303
3247842816-3247843327
3248575488-3248576511
3248806400-3248806911
3248816128-3248881663
3249124864-3249125375
3249733632-3249799167
3251195392-3251195903
3251203584-3251203839
3252320256-3252320511
3252584960-3252585215
3253004800-3253005055
3253665792-3253666815
3253908480-3253908991
3254782976-3254783231
3254783232-3254783487
3254783488-3254783743
3254893568-3254894079
3255368704-3255369215
3255574528-3255578623
3257987328-3257987583
3258056960-3258057215
3258057216-3258057471
3258057472-3258057727
3258057728-3258058239
3258059776-3258060799
3258060800-3258062847
3258063104-3258063359
3258063360-3258063871
3258073088-3258074111
3258082304-3258082559
3258104832-3258105087
3258105088-3258105343
3258105344-3258105599
3258105856-3258107903
3258107904-3258108159
3258108160-3258108415
3258108416-3258108671
3258108672-3258108927
3258108928-3258109183
3258109184-3258109439
3258109440-3258109951
3258110208-3258110463
3258110464-3258110975
3258110976-3258111231
3258111232-3258111487
3258111744-3258111999
3258112000-3258112255
3258112256-3258112511
3258112512-3258112767
3258112768-3258113023
3258113024-3258113535
3258113536-3258113791
3258113792-3258114047
3258114048-3258114303
3258114304-3258114559
3258114560-3258115071
3258115072-3258116095
3258116096-3258116351
3258116352-3258116607
3258116608-3258116863
3258117120-3258117631
3258117632-3258117887
3258117888-3258118143
3258118144-3258118399
3258118656-3258118911
3258118912-3258119167
3258119168-3258119679
3258119680-3258120191
3258120192-3258120703
3258120704-3258120959
3258120960-3258121215
3258789888-3258790911
3259970560-3259971583
3261857792-3261865983
3261865984-3261874175
3261874176-3261890559
3261890560-3261923327
3264328704-3264329727
3264569344-3264577535
3265605376-3265605631
3265607936-3265608191
3265912832-3265913087
3265920000-3265920255
3268673536-3268739071
3268742400-3268742655
3268747264-3268755455
3268788224-3268796415
3268796416-3268804607
3269722112-3269730303
3269730304-3269738495
3269738496-3269754879
3269754880-3269787647
3271932416-3271932671
3273007104-3273015295
3273267456-3273267711
3274113024-3274145791
3274174208-3274174463
3274394624-3274395135
3274637312-3274670079
3274697472-3274697727
3275512064-3275512191
3276177408-3276185599
3276426240-3276426495
3276700160-3276700671
3277360640-3277361151
3277366272-3277366783
3277707264-3277707775
3278962688-3279028223
3279601664-3279609855
3279985408-3279985663
3279994880-3280003071
3280582144-3280582399
3280796672-3280797695
3281018880-3281027071
3281149952-3281158143
3283238912-3283247103
3283943424-3283944447
3284044800-3284045055
3284086784-3284087295
3284126208-3284126719
3284126720-3284127231
3285116416-3285116927
3285323264-3285323775
3285774336-3285774591
3286321152-3286322175
3286423808-3286424063
3286944768-3286945791
3287666944-3287667199
3287703552-3287704063
3287973888-3287982079
3331129344-3331194879
3341287424-3341418495
3427776512-3427776767
3557064704-3557072895
3557515264-3557523455
3558096896-3558105087
3558105088-3558113279
3558375424-3558383615
3558588416-3558596607
3559849984-3559858175
3561078784-3561086975
3561086976-3561095167
3561177088-3561185279
3561455616-3561463807
3561463808-3561471999
3561971712-3561975807
3562029056-3562037247
3562725376-3562733567
3563102208-3563110399
3563958272-3563962367
3564044288-3564052479
3567157248-3567165439
3574792192-3574824959
3575447552-3575513087
3580665856-3580667903
3582033920-3582042111
3583459328-3583467519
3583713280-3583721471
3583762432-3583770623
3584598016-3584602111
3584602112-3584606207
3585024000-3585032191
3585351680-3585359871
3586088960-3586097151
3586129920-3586146303
3586310144-3586326527
3586375680-3586392063
3587342336-3587358719
3587383296-3587391487
3587710976-3587719167
3588014080-3588030463
3588407296-3588415487
3588415488-3588423679
3588964352-3588980735
3588980736-3588997119
3589980160-3589996543
3641434112-3641438207
3641438208-3641442303
3641749504-3641753599
3642511360-3642515455
3642556416-3642560511
3642638336-3642642431
3642699776-3642703871
3642736640-3642740735
3644850176-3644854271
3645022208-3645026303
3645026304-3645030399
3645202432-3645206527
3645624320-3645628415
3645743104-3645747199
3648036864-3648040959
3648253952-3648258047
3648376832-3648380927
3651719168-3651723263
3651776512-3651780607
3651821568-3651825663
3653410816-3653414911
3653476352-3653480447
3653529600-3653533695
3653554176-3653558271
3653574656-3653578751
3653603328-3653607423
3653660672-3653664767
