1023852544-1023868927
1728363520-1728364543
1728892928-1728893439
1729132544-1729133567
1729173504-1729174527
1729276928-1729277951
1729370112-1729371135
1986525184-1986527231
2007007232-2007023615
2619277312-2619342847
2661351424-2661416959
3227417088-3227417343
3389790720-3389790975
3392923136-3392923391
3394905088-3394905343
3395145728-3395149823
3398975488-3398983679
3399483392-3399485439
3399485440-3399487487
3399487488-3399491583
3399491584-3399495679
