692822016-692826111
692887552-692889599
692930560-692932607
693018624-693019647
693420032-693428223
696909824-696918015
696963072-696967167
700337152-700338175
700350464-700358655
700366848-700375039
700402688-700403711
701161472-701169663
701661184-701677567
702146560-702148607
702283776-702287871
702337024-702341119
702369792-702373887
702414848-702416895
702501888-702502911
2583724032-2583728127
2588071936-2588072959
3245135360-3245135615
3245145088-3245146111
3264846080-3264846207
3288334336-3288399871
3289020160-3289020415
3289025024-3289025535
3289048064-3289048319
3291185152-3291201535
3291210240-3291210495
3302535168-3302536191
3302540288-3302540799
3302955264-3302955519
3315400704-3315417087
3319627776-3319635967
3320774656-3320791039
3562561536-3562569727
